{
	"_version": "1.1.0",
	"resources": [
		{
			"name": "Component-dbg.js",
			"isDebug": true
		},
		{
			"name": "Component.js"
		},
		{
			"name": "blocks/IndexEntry-dbg.js",
			"isDebug": true
		},
		{
			"name": "blocks/IndexEntry.js"
		},
		{
			"name": "blocks/IndexEntry.view.xml"
		},
		{
			"name": "controller/ApiDetail-dbg.controller.js",
			"isDebug": true
		},
		{
			"name": "controller/ApiDetail.controller.js"
		},
		{
			"name": "controller/ApiDetailIndexDeprecatedExperimental-dbg.controller.js",
			"isDebug": true
		},
		{
			"name": "controller/ApiDetailIndexDeprecatedExperimental.controller.js"
		},
		{
			"name": "controller/ApiDetailInitial-dbg.controller.js",
			"isDebug": true
		},
		{
			"name": "controller/ApiDetailInitial.controller.js"
		},
		{
			"name": "controller/ApiMaster-dbg.controller.js",
			"isDebug": true
		},
		{
			"name": "controller/ApiMaster.controller.js"
		},
		{
			"name": "controller/App-dbg.controller.js",
			"isDebug": true
		},
		{
			"name": "controller/App.controller.js"
		},
		{
			"name": "controller/BaseController-dbg.js",
			"isDebug": true
		},
		{
			"name": "controller/BaseController.js"
		},
		{
			"name": "controller/Code-dbg.controller.js",
			"isDebug": true
		},
		{
			"name": "controller/Code.controller.js"
		},
		{
			"name": "controller/Controls-dbg.controller.js",
			"isDebug": true
		},
		{
			"name": "controller/Controls.controller.js"
		},
		{
			"name": "controller/ControlsMaster-dbg.controller.js",
			"isDebug": true
		},
		{
			"name": "controller/ControlsMaster.controller.js"
		},
		{
			"name": "controller/DemoApps-dbg.controller.js",
			"isDebug": true
		},
		{
			"name": "controller/DemoApps.controller.js"
		},
		{
			"name": "controller/Downloads-dbg.controller.js",
			"isDebug": true
		},
		{
			"name": "controller/Downloads.controller.js"
		},
		{
			"name": "controller/Entity-dbg.controller.js",
			"isDebug": true
		},
		{
			"name": "controller/Entity.controller.js"
		},
		{
			"name": "controller/ErrorHandler-dbg.js",
			"isDebug": true
		},
		{
			"name": "controller/ErrorHandler.js"
		},
		{
			"name": "controller/Group-dbg.controller.js",
			"isDebug": true
		},
		{
			"name": "controller/Group.controller.js"
		},
		{
			"name": "controller/License-dbg.controller.js",
			"isDebug": true
		},
		{
			"name": "controller/License.controller.js"
		},
		{
			"name": "controller/LiveEditor-dbg.controller.js",
			"isDebug": true
		},
		{
			"name": "controller/LiveEditor.controller.js"
		},
		{
			"name": "controller/MasterTreeBaseController-dbg.js",
			"isDebug": true
		},
		{
			"name": "controller/MasterTreeBaseController.js"
		},
		{
			"name": "controller/ReleaseNotes-dbg.controller.js",
			"isDebug": true
		},
		{
			"name": "controller/ReleaseNotes.controller.js"
		},
		{
			"name": "controller/Sample-dbg.controller.js",
			"isDebug": true
		},
		{
			"name": "controller/Sample.controller.js"
		},
		{
			"name": "controller/SearchPage-dbg.controller.js",
			"isDebug": true
		},
		{
			"name": "controller/SearchPage.controller.js"
		},
		{
			"name": "controller/SubApiDetail-dbg.controller.js",
			"isDebug": true
		},
		{
			"name": "controller/SubApiDetail.controller.js"
		},
		{
			"name": "controller/TermsOfUse-dbg.controller.js",
			"isDebug": true
		},
		{
			"name": "controller/TermsOfUse.controller.js"
		},
		{
			"name": "controller/Tools-dbg.controller.js",
			"isDebug": true
		},
		{
			"name": "controller/Tools.controller.js"
		},
		{
			"name": "controller/TopicDetail-dbg.controller.js",
			"isDebug": true
		},
		{
			"name": "controller/TopicDetail.controller.js"
		},
		{
			"name": "controller/TopicDetailInitial-dbg.controller.js",
			"isDebug": true
		},
		{
			"name": "controller/TopicDetailInitial.controller.js"
		},
		{
			"name": "controller/TopicMaster-dbg.controller.js",
			"isDebug": true
		},
		{
			"name": "controller/TopicMaster.controller.js"
		},
		{
			"name": "controller/Welcome-dbg.controller.js",
			"isDebug": true
		},
		{
			"name": "controller/Welcome.controller.js"
		},
		{
			"name": "controller/util/APIInfo-dbg.js",
			"isDebug": true
		},
		{
			"name": "controller/util/APIInfo.js"
		},
		{
			"name": "controller/util/ConfigUtil-dbg.js",
			"isDebug": true
		},
		{
			"name": "controller/util/ConfigUtil.js"
		},
		{
			"name": "controller/util/ControlsInfo-dbg.js",
			"isDebug": true
		},
		{
			"name": "controller/util/ControlsInfo.js"
		},
		{
			"name": "controller/util/EntityInfo-dbg.js",
			"isDebug": true
		},
		{
			"name": "controller/util/EntityInfo.js"
		},
		{
			"name": "controller/util/JSDocUtil-dbg.js",
			"isDebug": true
		},
		{
			"name": "controller/util/JSDocUtil.js"
		},
		{
			"name": "controller/util/TreeUtil-dbg.js",
			"isDebug": true
		},
		{
			"name": "controller/util/TreeUtil.js"
		},
		{
			"name": "controller/util/XML2JSONUtils-dbg.js",
			"isDebug": true
		},
		{
			"name": "controller/util/XML2JSONUtils.js"
		},
		{
			"name": "controls/BorrowedList-dbg.js",
			"isDebug": true
		},
		{
			"name": "controls/BorrowedList.js"
		},
		{
			"name": "controls/DemokitTreeItem-dbg.js",
			"isDebug": true
		},
		{
			"name": "controls/DemokitTreeItem.js"
		},
		{
			"name": "controls/DemokitTreeItemRenderer-dbg.js",
			"isDebug": true
		},
		{
			"name": "controls/DemokitTreeItemRenderer.js"
		},
		{
			"name": "controls/JSDocText-dbg.js",
			"isDebug": true
		},
		{
			"name": "controls/JSDocText.js"
		},
		{
			"name": "controls/LightTable-dbg.js",
			"isDebug": true
		},
		{
			"name": "controls/LightTable.js"
		},
		{
			"name": "controls/ObjectPageSubSection-dbg.js",
			"isDebug": true
		},
		{
			"name": "controls/ObjectPageSubSection.js"
		},
		{
			"name": "controls/ParamText-dbg.js",
			"isDebug": true
		},
		{
			"name": "controls/ParamText.js"
		},
		{
			"name": "controls/Row-dbg.js",
			"isDebug": true
		},
		{
			"name": "controls/Row.js"
		},
		{
			"name": "controls/Search-dbg.js",
			"isDebug": true
		},
		{
			"name": "controls/Search.js"
		},
		{
			"name": "controls/TitleLink-dbg.js",
			"isDebug": true
		},
		{
			"name": "controls/TitleLink.js"
		},
		{
			"name": "css/stars.png"
		},
		{
			"name": "css/style.css"
		},
		{
			"name": "fonts/BusinessSuiteInAppSymbolsSmall.eot"
		},
		{
			"name": "fonts/BusinessSuiteInAppSymbolsSmall.ttf"
		},
		{
			"name": "i18n/i18n.properties"
		},
		{
			"name": "images/API_ref_M_and_L_cropped.jpg"
		},
		{
			"name": "images/API_ref_S_cropped.jpg"
		},
		{
			"name": "images/DemoApps_M_and_L_cropped.jpg"
		},
		{
			"name": "images/DemoApps_S_cropped.jpg"
		},
		{
			"name": "images/Docu_M_and_L_cropped.jpg"
		},
		{
			"name": "images/Docu_S_cropped.jpg"
		},
		{
			"name": "images/Evolution_demokit_illustration_single.png"
		},
		{
			"name": "images/Explored_M_and_L_cropped.jpg"
		},
		{
			"name": "images/Explored_S_cropped.jpg"
		},
		{
			"name": "images/Fiori_design_examples.png"
		},
		{
			"name": "images/Fiori_guidelines_image.png"
		},
		{
			"name": "images/Home_M_and_L_cropped.jpg"
		},
		{
			"name": "images/Home_S_cropped.jpg"
		},
		{
			"name": "images/Logo_B_OpenUI5_H.png"
		},
		{
			"name": "images/Logo_B_SAPUI5_H.png"
		},
		{
			"name": "images/Theme_Designer_Image_350x197.jpg"
		},
		{
			"name": "images/Tools_M_and_L_cropped.jpg"
		},
		{
			"name": "images/Tools_S_cropped.jpg"
		},
		{
			"name": "images/WebIDE_logo_white_32x61.png"
		},
		{
			"name": "images/build_illu_astronaut_320x235.png"
		},
		{
			"name": "images/build_logo__white_26x80.png"
		},
		{
			"name": "images/demoAppsTeaser.png"
		},
		{
			"name": "images/link-external.png"
		},
		{
			"name": "images/link-sap.png"
		},
		{
			"name": "images/logo_sap.png"
		},
		{
			"name": "images/logo_stackoverflow.png"
		},
		{
			"name": "images/logo_twitter.png"
		},
		{
			"name": "images/logo_ui5.png"
		},
		{
			"name": "images/logo_youtube.png"
		},
		{
			"name": "images/tools/Build.png"
		},
		{
			"name": "images/tools/IconExplorer.png"
		},
		{
			"name": "images/tools/SupportAssistant.png"
		},
		{
			"name": "images/tools/ThemeDesigner.png"
		},
		{
			"name": "images/tools/ThemeParameterToolbox.png"
		},
		{
			"name": "images/tools/UI5EvoTooling.png"
		},
		{
			"name": "images/tools/UI5Inspector.png"
		},
		{
			"name": "images/tools/WebIDE.png"
		},
		{
			"name": "legal_agreement_with_privacy.html"
		},
		{
			"name": "manifest.json"
		},
		{
			"name": "model/LiveEditorData.json"
		},
		{
			"name": "model/formatter-dbg.js",
			"isDebug": true
		},
		{
			"name": "model/formatter.js"
		},
		{
			"name": "model/libraryData-dbg.js",
			"isDebug": true
		},
		{
			"name": "model/libraryData.js"
		},
		{
			"name": "model/models-dbg.js",
			"isDebug": true
		},
		{
			"name": "model/models.js"
		},
		{
			"name": "model/sourceFileDownloader-dbg.js",
			"isDebug": true
		},
		{
			"name": "model/sourceFileDownloader.js"
		},
		{
			"name": "thirdparty/esprima-dbg.js",
			"isDebug": true
		},
		{
			"name": "thirdparty/esprima.js"
		},
		{
			"name": "thirdparty/google-code-prettify/lang-css-dbg.js",
			"isDebug": true
		},
		{
			"name": "thirdparty/google-code-prettify/lang-css.js"
		},
		{
			"name": "thirdparty/google-code-prettify/lang-feature-dbg.js",
			"isDebug": true
		},
		{
			"name": "thirdparty/google-code-prettify/lang-feature.js"
		},
		{
			"name": "thirdparty/google-code-prettify/lang-properties-dbg.js",
			"isDebug": true
		},
		{
			"name": "thirdparty/google-code-prettify/lang-properties.js"
		},
		{
			"name": "thirdparty/google-code-prettify/lang-text-dbg.js",
			"isDebug": true
		},
		{
			"name": "thirdparty/google-code-prettify/lang-text.js"
		},
		{
			"name": "thirdparty/google-code-prettify/prettify-dbg.js",
			"isDebug": true
		},
		{
			"name": "thirdparty/google-code-prettify/prettify.css"
		},
		{
			"name": "thirdparty/google-code-prettify/prettify.js"
		},
		{
			"name": "thirdparty/google-code-prettify/run-prettify-dbg.js",
			"isDebug": true
		},
		{
			"name": "thirdparty/google-code-prettify/run-prettify.js"
		},
		{
			"name": "thirdparty/google-code-prettify/run_prettify-dbg.js",
			"isDebug": true
		},
		{
			"name": "thirdparty/google-code-prettify/run_prettify.js"
		},
		{
			"name": "thirdparty/jsanalyzer/ASTUtils-dbg.js",
			"isDebug": true
		},
		{
			"name": "thirdparty/jsanalyzer/ASTUtils.js"
		},
		{
			"name": "thirdparty/jsanalyzer/Doclet-dbg.js",
			"isDebug": true
		},
		{
			"name": "thirdparty/jsanalyzer/Doclet.js"
		},
		{
			"name": "thirdparty/jsanalyzer/ModuleAnalyzer-dbg.js",
			"isDebug": true
		},
		{
			"name": "thirdparty/jsanalyzer/ModuleAnalyzer.js"
		},
		{
			"name": "tmpl/index.html.tmpl"
		},
		{
			"name": "tmpl/index.js.tmpl"
		},
		{
			"name": "util/DocumentationRouter-dbg.js",
			"isDebug": true
		},
		{
			"name": "util/DocumentationRouter.js"
		},
		{
			"name": "util/ToggleFullScreenHandler-dbg.js",
			"isDebug": true
		},
		{
			"name": "util/ToggleFullScreenHandler.js"
		},
		{
			"name": "util/liveEditorOutput.html"
		},
		{
			"name": "view/AboutDialog.fragment.xml"
		},
		{
			"name": "view/ApiDetail.view.xml"
		},
		{
			"name": "view/ApiDetailDeprecated.view.xml"
		},
		{
			"name": "view/ApiDetailExperimental.view.xml"
		},
		{
			"name": "view/ApiDetailInitial.view.xml"
		},
		{
			"name": "view/ApiDetailSince.view.xml"
		},
		{
			"name": "view/ApiMaster.view.xml"
		},
		{
			"name": "view/App.view.xml"
		},
		{
			"name": "view/BlockLayoutCell.fragment.xml"
		},
		{
			"name": "view/BlockLayoutTeaserCell.fragment.xml"
		},
		{
			"name": "view/ChangeVersionDialog.fragment.xml"
		},
		{
			"name": "view/Code.view.xml"
		},
		{
			"name": "view/Controls.view.xml"
		},
		{
			"name": "view/ControlsMaster.view.xml"
		},
		{
			"name": "view/DemoApps.view.xml"
		},
		{
			"name": "view/Downloads.view.xml"
		},
		{
			"name": "view/Empty.view.xml"
		},
		{
			"name": "view/Entity.view.xml"
		},
		{
			"name": "view/FeedbackDialog.fragment.xml"
		},
		{
			"name": "view/Footer.fragment.xml"
		},
		{
			"name": "view/Group.view.xml"
		},
		{
			"name": "view/LegalDisclaimerPopover.fragment.xml"
		},
		{
			"name": "view/License.view.xml"
		},
		{
			"name": "view/LiveEditor.view.xml"
		},
		{
			"name": "view/NotFound.view.xml"
		},
		{
			"name": "view/ReleaseDialog.fragment.xml"
		},
		{
			"name": "view/ReleaseNotes.view.xml"
		},
		{
			"name": "view/ReleaseNotesView.view.tmpl"
		},
		{
			"name": "view/Sample.view.xml"
		},
		{
			"name": "view/SearchPage.view.xml"
		},
		{
			"name": "view/SubApiDetail.view.xml"
		},
		{
			"name": "view/TermsOfUse.view.xml"
		},
		{
			"name": "view/Tools.view.xml"
		},
		{
			"name": "view/TopicDetail.view.xml"
		},
		{
			"name": "view/TopicDetailInitial.view.xml"
		},
		{
			"name": "view/TopicMaster.view.xml"
		},
		{
			"name": "view/VersionInfo.view.xml"
		},
		{
			"name": "view/Welcome.view.xml"
		},
		{
			"name": "view/appSettingsDialog.fragment.xml"
		},
		{
			"name": "view/viewSettingsDialog.fragment.xml"
		}
	]
}