{
    "d": {
        "results": [{
            "__metadata": {
                "id": "https://sapgwddbci.came.spa:8001/sap/opu/odata/sap/ZCFEM_FIORI_DATA_SRV/ZCFEM_GET_LISTA_DEPOSITISet(Citta='MOGLIANO%20VENETO',Deposito='0000101818',Descrizione='ELETTRONICA%20DAMIANI%20E%20ZARA%20SRL',Provincia='TV',Cap='31021',Via='VIA%20GALILEI%202%2FA')",
                "uri": "https://sapgwddbci.came.spa:8001/sap/opu/odata/sap/ZCFEM_FIORI_DATA_SRV/ZCFEM_GET_LISTA_DEPOSITISet(Citta='MOGLIANO%20VENETO',Deposito='0000101818',Descrizione='ELETTRONICA%20DAMIANI%20E%20ZARA%20SRL',Provincia='TV',Cap='31021',Via='VIA%20GALILEI%202%2FA')",
                "type": "ZCFEM_FIORI_DATA_SRV.ZCFEM_GET_LISTA_DEPOSITI"
            },
            "Citta": "MOGLIANO VENETO",
            "Deposito": "0000101818",
            "Descrizione": "ELETTRONICA DAMIANI E ZARA SRL",
            "Provincia": "TV",
            "Cap": "31021",
            "Via": "VIA GALILEI 2/A"
        }, {
            "__metadata": {
                "id": "https://sapgwddbci.came.spa:8001/sap/opu/odata/sap/ZCFEM_FIORI_DATA_SRV/ZCFEM_GET_LISTA_DEPOSITISet(Citta='PREGANZIOL',Deposito='0000104918',Descrizione='ASSELMEC%20S.R.L.',Provincia='TV',Cap='31022',Via='VIA%20L.%20GALVANI%203')",
                "uri": "https://sapgwddbci.came.spa:8001/sap/opu/odata/sap/ZCFEM_FIORI_DATA_SRV/ZCFEM_GET_LISTA_DEPOSITISet(Citta='PREGANZIOL',Deposito='0000104918',Descrizione='ASSELMEC%20S.R.L.',Provincia='TV',Cap='31022',Via='VIA%20L.%20GALVANI%203')",
                "type": "ZCFEM_FIORI_DATA_SRV.ZCFEM_GET_LISTA_DEPOSITI"
            },
            "Citta": "PREGANZIOL",
            "Deposito": "0000104918",
            "Descrizione": "ASSELMEC S.R.L.",
            "Provincia": "TV",
            "Cap": "31022",
            "Via": "VIA L. GALVANI 3"
        }, {
            "__metadata": {
                "id": "https://sapgwddbci.came.spa:8001/sap/opu/odata/sap/ZCFEM_FIORI_DATA_SRV/ZCFEM_GET_LISTA_DEPOSITISet(Citta='DOSSON%20DI%20CASIER',Deposito='0000102216',Descrizione='TECNOGAMMA%20S.R.L.U.',Provincia='TV',Cap='31030',Via='VIA%20VILFREDO%20PARETO%204%2F6')",
                "uri": "https://sapgwddbci.came.spa:8001/sap/opu/odata/sap/ZCFEM_FIORI_DATA_SRV/ZCFEM_GET_LISTA_DEPOSITISet(Citta='DOSSON%20DI%20CASIER',Deposito='0000102216',Descrizione='TECNOGAMMA%20S.R.L.U.',Provincia='TV',Cap='31030',Via='VIA%20VILFREDO%20PARETO%204%2F6')",
                "type": "ZCFEM_FIORI_DATA_SRV.ZCFEM_GET_LISTA_DEPOSITI"
            },
            "Citta": "DOSSON DI CASIER",
            "Deposito": "0000102216",
            "Descrizione": "TECNOGAMMA S.R.L.U.",
            "Provincia": "TV",
            "Cap": "31030",
            "Via": "VIA VILFREDO PARETO 4/6"
        }, {
            "__metadata": {
                "id": "https://sapgwddbci.came.spa:8001/sap/opu/odata/sap/ZCFEM_FIORI_DATA_SRV/ZCFEM_GET_LISTA_DEPOSITISet(Citta='MANSUE''',Deposito='0000100961',Descrizione='C.O.E.%20ELETTRONICA%20SNC',Provincia='TV',Cap='31040',Via='VIA%20PORDENONE%2018')",
                "uri": "https://sapgwddbci.came.spa:8001/sap/opu/odata/sap/ZCFEM_FIORI_DATA_SRV/ZCFEM_GET_LISTA_DEPOSITISet(Citta='MANSUE''',Deposito='0000100961',Descrizione='C.O.E.%20ELETTRONICA%20SNC',Provincia='TV',Cap='31040',Via='VIA%20PORDENONE%2018')",
                "type": "ZCFEM_FIORI_DATA_SRV.ZCFEM_GET_LISTA_DEPOSITI"
            },
            "Citta": "MANSUE'",
            "Deposito": "0000100961",
            "Descrizione": "C.O.E. ELETTRONICA SNC",
            "Provincia": "TV",
            "Cap": "31040",
            "Via": "VIA PORDENONE 18"
        }]
    }
}