{
  "modules" : [
    {
      "name" : "sap/ui/documentation/library-h2-preload.js",
      "size" : 26904,
      "required" : ["jquery.sap.global.js", "sap/base/Log.js", "sap/base/security/sanitizeHTML.js", "sap/base/strings/capitalize.js", "sap/base/strings/escapeRegExp.js", "sap/base/util/ObjectPath.js", "sap/base/util/UriParameters.js", "sap/base/util/Version.js", "sap/f/DynamicPage.js", "sap/f/DynamicPageHeader.js", "sap/f/DynamicPageTitle.js", "sap/m/Bar.js", "sap/m/Button.js", "sap/m/CheckBox.js", "sap/m/Column.js", "sap/m/ColumnListItem.js", "sap/m/CustomListItem.js", "sap/m/Dialog.js", "sap/m/FeedListItem.js", "sap/m/FlexBox.js", "sap/m/FlexItemData.js", "sap/m/FormattedText.js", "sap/m/GroupHeaderListItem.js", "sap/m/HBox.js", "sap/m/IconTabFilter.js", "sap/m/IconTabHeader.js", "sap/m/Image.js", "sap/m/InputListItem.js", "sap/m/Label.js", "sap/m/Link.js", "sap/m/List.js", "sap/m/Menu.js", "sap/m/MenuButton.js", "sap/m/MenuItem.js", "sap/m/MessageBox.js", "sap/m/MessagePage.js", "sap/m/MessageStrip.js", "sap/m/MessageToast.js", "sap/m/NavContainer.js", "sap/m/ObjectAttribute.js", "sap/m/ObjectStatus.js", "sap/m/OverflowToolbar.js", "sap/m/OverflowToolbarLayoutData.js", "sap/m/Page.js", "sap/m/PageAccessibleLandmarkInfo.js", "sap/m/Panel.js", "sap/m/Popover.js", "sap/m/ScrollContainer.js", "sap/m/SearchField.js", "sap/m/Select.js", "sap/m/SelectDialog.js", "sap/m/SplitApp.js", "sap/m/StandardListItem.js", "sap/m/Switch.js", "sap/m/Table.js", "sap/m/Text.js", "sap/m/TextArea.js", "sap/m/Title.js", "sap/m/ToggleButton.js", "sap/m/Toolbar.js", "sap/m/ToolbarSpacer.js", "sap/m/Tree.js", "sap/m/TreeItemBase.js", "sap/m/TreeItemBaseRenderer.js", "sap/m/VBox.js", "sap/m/ViewSettingsDialog.js", "sap/m/ViewSettingsFilterItem.js", "sap/m/ViewSettingsItem.js", "sap/m/library.js", "sap/m/routing/Router.js", "sap/tnt/ToolHeader.js", "sap/ui/Device.js", "sap/ui/VersionInfo.js", "sap/ui/base/Object.js", "sap/ui/codeeditor/CodeEditor.js", "sap/ui/core/Component.js", "sap/ui/core/ComponentContainer.js", "sap/ui/core/Control.js", "sap/ui/core/CustomData.js", "sap/ui/core/Element.js", "sap/ui/core/ExtensionPoint.js", "sap/ui/core/Fragment.js", "sap/ui/core/HTML.js", "sap/ui/core/Icon.js", "sap/ui/core/IconPool.js", "sap/ui/core/Item.js", "sap/ui/core/Renderer.js", "sap/ui/core/ResizeHandler.js", "sap/ui/core/Title.js", "sap/ui/core/UIComponent.js", "sap/ui/core/library.js", "sap/ui/core/mvc/Controller.js", "sap/ui/core/mvc/XMLView.js", "sap/ui/core/routing/History.js", "sap/ui/core/syncStyleClass.js", "sap/ui/core/util/LibraryInfo.js", "sap/ui/documentation/sdk/blocks/IndexEntry.controller.js", "sap/ui/documentation/sdk/controller/BaseController.controller.js", "sap/ui/documentation/sdk/thirdparty/jsanalyzer/ModuleAnalyzer.js", "sap/ui/layout/BlockLayout.js", "sap/ui/layout/BlockLayoutCell.js", "sap/ui/layout/BlockLayoutCellData.js", "sap/ui/layout/BlockLayoutRow.js", "sap/ui/layout/FixFlex.js", "sap/ui/layout/Grid.js", "sap/ui/layout/GridData.js", "sap/ui/layout/HorizontalLayout.js", "sap/ui/layout/VerticalLayout.js", "sap/ui/layout/form/Form.js", "sap/ui/layout/form/FormContainer.js", "sap/ui/layout/form/FormElement.js", "sap/ui/layout/form/GridLayout.js", "sap/ui/layout/form/ResponsiveGridLayout.js", "sap/ui/model/Filter.js", "sap/ui/model/FilterOperator.js", "sap/ui/model/Sorter.js", "sap/ui/model/json/JSONModel.js", "sap/ui/model/resource/ResourceModel.js", "sap/ui/thirdparty/URI.js", "sap/ui/thirdparty/hasher.js", "sap/ui/thirdparty/jquery.js", "sap/ui/util/Storage.js", "sap/uxap/BlockBase.js", "sap/uxap/ObjectPageHeader.js", "sap/uxap/ObjectPageHeaderActionButton.js", "sap/uxap/ObjectPageLayout.js", "sap/uxap/ObjectPageLazyLoader.js", "sap/uxap/ObjectPageSection.js", "sap/uxap/ObjectPageSubSection.js", "sap/uxap/ThrottledTaskHelper.js", "ui5loader-autoconfig.js"],
      "includes" : ["sap/ui/documentation/library.js", "sap/ui/documentation/manifest.json", "sap/ui/documentation/sdk/Component.js", "sap/ui/documentation/sdk/blocks/IndexEntry.js", "sap/ui/documentation/sdk/blocks/IndexEntry.view.xml", "sap/ui/documentation/sdk/controller/ApiDetail.controller.js", "sap/ui/documentation/sdk/controller/ApiDetailIndexDeprecatedExperimental.controller.js", "sap/ui/documentation/sdk/controller/ApiDetailInitial.controller.js", "sap/ui/documentation/sdk/controller/ApiMaster.controller.js", "sap/ui/documentation/sdk/controller/App.controller.js", "sap/ui/documentation/sdk/controller/BaseController.js", "sap/ui/documentation/sdk/controller/Code.controller.js", "sap/ui/documentation/sdk/controller/Controls.controller.js", "sap/ui/documentation/sdk/controller/ControlsMaster.controller.js", "sap/ui/documentation/sdk/controller/DemoApps.controller.js", "sap/ui/documentation/sdk/controller/Downloads.controller.js", "sap/ui/documentation/sdk/controller/Entity.controller.js", "sap/ui/documentation/sdk/controller/ErrorHandler.js", "sap/ui/documentation/sdk/controller/Group.controller.js", "sap/ui/documentation/sdk/controller/License.controller.js", "sap/ui/documentation/sdk/controller/LiveEditor.controller.js", "sap/ui/documentation/sdk/controller/MasterTreeBaseController.js", "sap/ui/documentation/sdk/controller/ReleaseNotes.controller.js", "sap/ui/documentation/sdk/controller/Sample.controller.js", "sap/ui/documentation/sdk/controller/SearchPage.controller.js", "sap/ui/documentation/sdk/controller/SubApiDetail.controller.js", "sap/ui/documentation/sdk/controller/TermsOfUse.controller.js", "sap/ui/documentation/sdk/controller/Tools.controller.js", "sap/ui/documentation/sdk/controller/TopicDetail.controller.js", "sap/ui/documentation/sdk/controller/TopicDetailInitial.controller.js", "sap/ui/documentation/sdk/controller/TopicMaster.controller.js", "sap/ui/documentation/sdk/controller/Welcome.controller.js", "sap/ui/documentation/sdk/controller/util/APIInfo.js", "sap/ui/documentation/sdk/controller/util/ConfigUtil.js", "sap/ui/documentation/sdk/controller/util/ControlsInfo.js", "sap/ui/documentation/sdk/controller/util/EntityInfo.js", "sap/ui/documentation/sdk/controller/util/JSDocUtil.js", "sap/ui/documentation/sdk/controller/util/TreeUtil.js", "sap/ui/documentation/sdk/controller/util/XML2JSONUtils.js", "sap/ui/documentation/sdk/controls/BorrowedList.js", "sap/ui/documentation/sdk/controls/DemokitTreeItem.js", "sap/ui/documentation/sdk/controls/DemokitTreeItemRenderer.js", "sap/ui/documentation/sdk/controls/JSDocText.js", "sap/ui/documentation/sdk/controls/LightTable.js", "sap/ui/documentation/sdk/controls/ObjectPageSubSection.js", "sap/ui/documentation/sdk/controls/ParamText.js", "sap/ui/documentation/sdk/controls/Row.js", "sap/ui/documentation/sdk/controls/Search.js", "sap/ui/documentation/sdk/controls/TitleLink.js", "sap/ui/documentation/sdk/manifest.json", "sap/ui/documentation/sdk/model/formatter.js", "sap/ui/documentation/sdk/model/libraryData.js", "sap/ui/documentation/sdk/model/models.js", "sap/ui/documentation/sdk/model/sourceFileDownloader.js", "sap/ui/documentation/sdk/util/DocumentationRouter.js", "sap/ui/documentation/sdk/util/ToggleFullScreenHandler.js", "sap/ui/documentation/sdk/view/AboutDialog.fragment.xml", "sap/ui/documentation/sdk/view/ApiDetail.view.xml", "sap/ui/documentation/sdk/view/ApiDetailDeprecated.view.xml", "sap/ui/documentation/sdk/view/ApiDetailExperimental.view.xml", "sap/ui/documentation/sdk/view/ApiDetailInitial.view.xml", "sap/ui/documentation/sdk/view/ApiDetailSince.view.xml", "sap/ui/documentation/sdk/view/ApiMaster.view.xml", "sap/ui/documentation/sdk/view/App.view.xml", "sap/ui/documentation/sdk/view/BlockLayoutCell.fragment.xml", "sap/ui/documentation/sdk/view/BlockLayoutTeaserCell.fragment.xml", "sap/ui/documentation/sdk/view/ChangeVersionDialog.fragment.xml", "sap/ui/documentation/sdk/view/Code.view.xml", "sap/ui/documentation/sdk/view/Controls.view.xml", "sap/ui/documentation/sdk/view/ControlsMaster.view.xml", "sap/ui/documentation/sdk/view/DemoApps.view.xml", "sap/ui/documentation/sdk/view/Downloads.view.xml", "sap/ui/documentation/sdk/view/Empty.view.xml", "sap/ui/documentation/sdk/view/Entity.view.xml", "sap/ui/documentation/sdk/view/FeedbackDialog.fragment.xml", "sap/ui/documentation/sdk/view/Footer.fragment.xml", "sap/ui/documentation/sdk/view/Group.view.xml", "sap/ui/documentation/sdk/view/LegalDisclaimerPopover.fragment.xml", "sap/ui/documentation/sdk/view/License.view.xml", "sap/ui/documentation/sdk/view/LiveEditor.view.xml", "sap/ui/documentation/sdk/view/NotFound.view.xml", "sap/ui/documentation/sdk/view/ReleaseDialog.fragment.xml", "sap/ui/documentation/sdk/view/ReleaseNotes.view.xml", "sap/ui/documentation/sdk/view/Sample.view.xml", "sap/ui/documentation/sdk/view/SearchPage.view.xml", "sap/ui/documentation/sdk/view/SubApiDetail.view.xml", "sap/ui/documentation/sdk/view/TermsOfUse.view.xml", "sap/ui/documentation/sdk/view/Tools.view.xml", "sap/ui/documentation/sdk/view/TopicDetail.view.xml", "sap/ui/documentation/sdk/view/TopicDetailInitial.view.xml", "sap/ui/documentation/sdk/view/TopicMaster.view.xml", "sap/ui/documentation/sdk/view/VersionInfo.view.xml", "sap/ui/documentation/sdk/view/Welcome.view.xml", "sap/ui/documentation/sdk/view/appSettingsDialog.fragment.xml", "sap/ui/documentation/sdk/view/viewSettingsDialog.fragment.xml"]
    },
    {
      "name" : "sap/ui/documentation/library-preload.js",
      "size" : 277571,
      "required" : ["jquery.sap.global.js", "sap/base/Log.js", "sap/base/security/sanitizeHTML.js", "sap/base/strings/capitalize.js", "sap/base/strings/escapeRegExp.js", "sap/base/util/ObjectPath.js", "sap/base/util/UriParameters.js", "sap/base/util/Version.js", "sap/f/DynamicPage.js", "sap/f/DynamicPageHeader.js", "sap/f/DynamicPageTitle.js", "sap/m/Bar.js", "sap/m/Button.js", "sap/m/CheckBox.js", "sap/m/Column.js", "sap/m/ColumnListItem.js", "sap/m/CustomListItem.js", "sap/m/Dialog.js", "sap/m/FeedListItem.js", "sap/m/FlexBox.js", "sap/m/FlexItemData.js", "sap/m/FormattedText.js", "sap/m/GroupHeaderListItem.js", "sap/m/HBox.js", "sap/m/IconTabFilter.js", "sap/m/IconTabHeader.js", "sap/m/Image.js", "sap/m/InputListItem.js", "sap/m/Label.js", "sap/m/Link.js", "sap/m/List.js", "sap/m/Menu.js", "sap/m/MenuButton.js", "sap/m/MenuItem.js", "sap/m/MessageBox.js", "sap/m/MessagePage.js", "sap/m/MessageStrip.js", "sap/m/MessageToast.js", "sap/m/NavContainer.js", "sap/m/ObjectAttribute.js", "sap/m/ObjectStatus.js", "sap/m/OverflowToolbar.js", "sap/m/OverflowToolbarLayoutData.js", "sap/m/Page.js", "sap/m/PageAccessibleLandmarkInfo.js", "sap/m/Panel.js", "sap/m/Popover.js", "sap/m/ScrollContainer.js", "sap/m/SearchField.js", "sap/m/Select.js", "sap/m/SelectDialog.js", "sap/m/SplitApp.js", "sap/m/StandardListItem.js", "sap/m/Switch.js", "sap/m/Table.js", "sap/m/Text.js", "sap/m/TextArea.js", "sap/m/Title.js", "sap/m/ToggleButton.js", "sap/m/Toolbar.js", "sap/m/ToolbarSpacer.js", "sap/m/Tree.js", "sap/m/TreeItemBase.js", "sap/m/TreeItemBaseRenderer.js", "sap/m/VBox.js", "sap/m/ViewSettingsDialog.js", "sap/m/ViewSettingsFilterItem.js", "sap/m/ViewSettingsItem.js", "sap/m/library.js", "sap/m/routing/Router.js", "sap/tnt/ToolHeader.js", "sap/ui/Device.js", "sap/ui/VersionInfo.js", "sap/ui/base/Object.js", "sap/ui/codeeditor/CodeEditor.js", "sap/ui/core/Component.js", "sap/ui/core/ComponentContainer.js", "sap/ui/core/Control.js", "sap/ui/core/CustomData.js", "sap/ui/core/Element.js", "sap/ui/core/ExtensionPoint.js", "sap/ui/core/Fragment.js", "sap/ui/core/HTML.js", "sap/ui/core/Icon.js", "sap/ui/core/IconPool.js", "sap/ui/core/Item.js", "sap/ui/core/Renderer.js", "sap/ui/core/ResizeHandler.js", "sap/ui/core/Title.js", "sap/ui/core/UIComponent.js", "sap/ui/core/library.js", "sap/ui/core/mvc/Controller.js", "sap/ui/core/mvc/XMLView.js", "sap/ui/core/routing/History.js", "sap/ui/core/syncStyleClass.js", "sap/ui/core/util/LibraryInfo.js", "sap/ui/documentation/sdk/blocks/IndexEntry.controller.js", "sap/ui/documentation/sdk/controller/BaseController.controller.js", "sap/ui/documentation/sdk/thirdparty/jsanalyzer/ModuleAnalyzer.js", "sap/ui/layout/BlockLayout.js", "sap/ui/layout/BlockLayoutCell.js", "sap/ui/layout/BlockLayoutCellData.js", "sap/ui/layout/BlockLayoutRow.js", "sap/ui/layout/FixFlex.js", "sap/ui/layout/Grid.js", "sap/ui/layout/GridData.js", "sap/ui/layout/HorizontalLayout.js", "sap/ui/layout/VerticalLayout.js", "sap/ui/layout/form/Form.js", "sap/ui/layout/form/FormContainer.js", "sap/ui/layout/form/FormElement.js", "sap/ui/layout/form/GridLayout.js", "sap/ui/layout/form/ResponsiveGridLayout.js", "sap/ui/model/Filter.js", "sap/ui/model/FilterOperator.js", "sap/ui/model/Sorter.js", "sap/ui/model/json/JSONModel.js", "sap/ui/model/resource/ResourceModel.js", "sap/ui/thirdparty/URI.js", "sap/ui/thirdparty/hasher.js", "sap/ui/thirdparty/jquery.js", "sap/ui/util/Storage.js", "sap/uxap/BlockBase.js", "sap/uxap/ObjectPageHeader.js", "sap/uxap/ObjectPageHeaderActionButton.js", "sap/uxap/ObjectPageLayout.js", "sap/uxap/ObjectPageLazyLoader.js", "sap/uxap/ObjectPageSection.js", "sap/uxap/ObjectPageSubSection.js", "sap/uxap/ThrottledTaskHelper.js", "ui5loader-autoconfig.js"],
      "includes" : ["sap/ui/documentation/library.js", "sap/ui/documentation/manifest.json", "sap/ui/documentation/sdk/Component.js", "sap/ui/documentation/sdk/blocks/IndexEntry.js", "sap/ui/documentation/sdk/blocks/IndexEntry.view.xml", "sap/ui/documentation/sdk/controller/ApiDetail.controller.js", "sap/ui/documentation/sdk/controller/ApiDetailIndexDeprecatedExperimental.controller.js", "sap/ui/documentation/sdk/controller/ApiDetailInitial.controller.js", "sap/ui/documentation/sdk/controller/ApiMaster.controller.js", "sap/ui/documentation/sdk/controller/App.controller.js", "sap/ui/documentation/sdk/controller/BaseController.js", "sap/ui/documentation/sdk/controller/Code.controller.js", "sap/ui/documentation/sdk/controller/Controls.controller.js", "sap/ui/documentation/sdk/controller/ControlsMaster.controller.js", "sap/ui/documentation/sdk/controller/DemoApps.controller.js", "sap/ui/documentation/sdk/controller/Downloads.controller.js", "sap/ui/documentation/sdk/controller/Entity.controller.js", "sap/ui/documentation/sdk/controller/ErrorHandler.js", "sap/ui/documentation/sdk/controller/Group.controller.js", "sap/ui/documentation/sdk/controller/License.controller.js", "sap/ui/documentation/sdk/controller/LiveEditor.controller.js", "sap/ui/documentation/sdk/controller/MasterTreeBaseController.js", "sap/ui/documentation/sdk/controller/ReleaseNotes.controller.js", "sap/ui/documentation/sdk/controller/Sample.controller.js", "sap/ui/documentation/sdk/controller/SearchPage.controller.js", "sap/ui/documentation/sdk/controller/SubApiDetail.controller.js", "sap/ui/documentation/sdk/controller/TermsOfUse.controller.js", "sap/ui/documentation/sdk/controller/Tools.controller.js", "sap/ui/documentation/sdk/controller/TopicDetail.controller.js", "sap/ui/documentation/sdk/controller/TopicDetailInitial.controller.js", "sap/ui/documentation/sdk/controller/TopicMaster.controller.js", "sap/ui/documentation/sdk/controller/Welcome.controller.js", "sap/ui/documentation/sdk/controller/util/APIInfo.js", "sap/ui/documentation/sdk/controller/util/ConfigUtil.js", "sap/ui/documentation/sdk/controller/util/ControlsInfo.js", "sap/ui/documentation/sdk/controller/util/EntityInfo.js", "sap/ui/documentation/sdk/controller/util/JSDocUtil.js", "sap/ui/documentation/sdk/controller/util/TreeUtil.js", "sap/ui/documentation/sdk/controller/util/XML2JSONUtils.js", "sap/ui/documentation/sdk/controls/BorrowedList.js", "sap/ui/documentation/sdk/controls/DemokitTreeItem.js", "sap/ui/documentation/sdk/controls/DemokitTreeItemRenderer.js", "sap/ui/documentation/sdk/controls/JSDocText.js", "sap/ui/documentation/sdk/controls/LightTable.js", "sap/ui/documentation/sdk/controls/ObjectPageSubSection.js", "sap/ui/documentation/sdk/controls/ParamText.js", "sap/ui/documentation/sdk/controls/Row.js", "sap/ui/documentation/sdk/controls/Search.js", "sap/ui/documentation/sdk/controls/TitleLink.js", "sap/ui/documentation/sdk/manifest.json", "sap/ui/documentation/sdk/model/formatter.js", "sap/ui/documentation/sdk/model/libraryData.js", "sap/ui/documentation/sdk/model/models.js", "sap/ui/documentation/sdk/model/sourceFileDownloader.js", "sap/ui/documentation/sdk/util/DocumentationRouter.js", "sap/ui/documentation/sdk/util/ToggleFullScreenHandler.js", "sap/ui/documentation/sdk/view/AboutDialog.fragment.xml", "sap/ui/documentation/sdk/view/ApiDetail.view.xml", "sap/ui/documentation/sdk/view/ApiDetailDeprecated.view.xml", "sap/ui/documentation/sdk/view/ApiDetailExperimental.view.xml", "sap/ui/documentation/sdk/view/ApiDetailInitial.view.xml", "sap/ui/documentation/sdk/view/ApiDetailSince.view.xml", "sap/ui/documentation/sdk/view/ApiMaster.view.xml", "sap/ui/documentation/sdk/view/App.view.xml", "sap/ui/documentation/sdk/view/BlockLayoutCell.fragment.xml", "sap/ui/documentation/sdk/view/BlockLayoutTeaserCell.fragment.xml", "sap/ui/documentation/sdk/view/ChangeVersionDialog.fragment.xml", "sap/ui/documentation/sdk/view/Code.view.xml", "sap/ui/documentation/sdk/view/Controls.view.xml", "sap/ui/documentation/sdk/view/ControlsMaster.view.xml", "sap/ui/documentation/sdk/view/DemoApps.view.xml", "sap/ui/documentation/sdk/view/Downloads.view.xml", "sap/ui/documentation/sdk/view/Empty.view.xml", "sap/ui/documentation/sdk/view/Entity.view.xml", "sap/ui/documentation/sdk/view/FeedbackDialog.fragment.xml", "sap/ui/documentation/sdk/view/Footer.fragment.xml", "sap/ui/documentation/sdk/view/Group.view.xml", "sap/ui/documentation/sdk/view/LegalDisclaimerPopover.fragment.xml", "sap/ui/documentation/sdk/view/License.view.xml", "sap/ui/documentation/sdk/view/LiveEditor.view.xml", "sap/ui/documentation/sdk/view/NotFound.view.xml", "sap/ui/documentation/sdk/view/ReleaseDialog.fragment.xml", "sap/ui/documentation/sdk/view/ReleaseNotes.view.xml", "sap/ui/documentation/sdk/view/Sample.view.xml", "sap/ui/documentation/sdk/view/SearchPage.view.xml", "sap/ui/documentation/sdk/view/SubApiDetail.view.xml", "sap/ui/documentation/sdk/view/TermsOfUse.view.xml", "sap/ui/documentation/sdk/view/Tools.view.xml", "sap/ui/documentation/sdk/view/TopicDetail.view.xml", "sap/ui/documentation/sdk/view/TopicDetailInitial.view.xml", "sap/ui/documentation/sdk/view/TopicMaster.view.xml", "sap/ui/documentation/sdk/view/VersionInfo.view.xml", "sap/ui/documentation/sdk/view/Welcome.view.xml", "sap/ui/documentation/sdk/view/appSettingsDialog.fragment.xml", "sap/ui/documentation/sdk/view/viewSettingsDialog.fragment.xml"]
    },
    {
      "name" : "sap/ui/documentation/library-preload.json",
      "size" : 0,
      "required" : ["jquery.sap.global.js", "sap/base/Log.js", "sap/base/security/sanitizeHTML.js", "sap/base/strings/capitalize.js", "sap/base/strings/escapeRegExp.js", "sap/base/util/ObjectPath.js", "sap/base/util/UriParameters.js", "sap/base/util/Version.js", "sap/f/DynamicPage.js", "sap/f/DynamicPageHeader.js", "sap/f/DynamicPageTitle.js", "sap/m/Bar.js", "sap/m/Button.js", "sap/m/CheckBox.js", "sap/m/Column.js", "sap/m/ColumnListItem.js", "sap/m/CustomListItem.js", "sap/m/Dialog.js", "sap/m/FeedListItem.js", "sap/m/FlexBox.js", "sap/m/FlexItemData.js", "sap/m/FormattedText.js", "sap/m/GroupHeaderListItem.js", "sap/m/HBox.js", "sap/m/IconTabFilter.js", "sap/m/IconTabHeader.js", "sap/m/Image.js", "sap/m/InputListItem.js", "sap/m/Label.js", "sap/m/Link.js", "sap/m/List.js", "sap/m/Menu.js", "sap/m/MenuButton.js", "sap/m/MenuItem.js", "sap/m/MessageBox.js", "sap/m/MessagePage.js", "sap/m/MessageStrip.js", "sap/m/MessageToast.js", "sap/m/NavContainer.js", "sap/m/ObjectAttribute.js", "sap/m/ObjectStatus.js", "sap/m/OverflowToolbar.js", "sap/m/OverflowToolbarLayoutData.js", "sap/m/Page.js", "sap/m/PageAccessibleLandmarkInfo.js", "sap/m/Panel.js", "sap/m/Popover.js", "sap/m/ScrollContainer.js", "sap/m/SearchField.js", "sap/m/Select.js", "sap/m/SelectDialog.js", "sap/m/SplitApp.js", "sap/m/StandardListItem.js", "sap/m/Switch.js", "sap/m/Table.js", "sap/m/Text.js", "sap/m/TextArea.js", "sap/m/Title.js", "sap/m/ToggleButton.js", "sap/m/Toolbar.js", "sap/m/ToolbarSpacer.js", "sap/m/Tree.js", "sap/m/TreeItemBase.js", "sap/m/TreeItemBaseRenderer.js", "sap/m/VBox.js", "sap/m/ViewSettingsDialog.js", "sap/m/ViewSettingsFilterItem.js", "sap/m/ViewSettingsItem.js", "sap/m/library-preload.json", "sap/m/library.js", "sap/m/routing/Router.js", "sap/tnt/ToolHeader.js", "sap/ui/Device.js", "sap/ui/VersionInfo.js", "sap/ui/base/Object.js", "sap/ui/codeeditor/CodeEditor.js", "sap/ui/core/Component.js", "sap/ui/core/ComponentContainer.js", "sap/ui/core/Control.js", "sap/ui/core/CustomData.js", "sap/ui/core/Element.js", "sap/ui/core/ExtensionPoint.js", "sap/ui/core/Fragment.js", "sap/ui/core/HTML.js", "sap/ui/core/Icon.js", "sap/ui/core/IconPool.js", "sap/ui/core/Item.js", "sap/ui/core/Renderer.js", "sap/ui/core/ResizeHandler.js", "sap/ui/core/Title.js", "sap/ui/core/UIComponent.js", "sap/ui/core/library-preload.json", "sap/ui/core/library.js", "sap/ui/core/mvc/Controller.js", "sap/ui/core/mvc/XMLView.js", "sap/ui/core/routing/History.js", "sap/ui/core/syncStyleClass.js", "sap/ui/core/util/LibraryInfo.js", "sap/ui/documentation/sdk/blocks/IndexEntry.controller.js", "sap/ui/documentation/sdk/controller/BaseController.controller.js", "sap/ui/documentation/sdk/thirdparty/jsanalyzer/ModuleAnalyzer.js", "sap/ui/layout/BlockLayout.js", "sap/ui/layout/BlockLayoutCell.js", "sap/ui/layout/BlockLayoutCellData.js", "sap/ui/layout/BlockLayoutRow.js", "sap/ui/layout/FixFlex.js", "sap/ui/layout/Grid.js", "sap/ui/layout/GridData.js", "sap/ui/layout/HorizontalLayout.js", "sap/ui/layout/VerticalLayout.js", "sap/ui/layout/form/Form.js", "sap/ui/layout/form/FormContainer.js", "sap/ui/layout/form/FormElement.js", "sap/ui/layout/form/GridLayout.js", "sap/ui/layout/form/ResponsiveGridLayout.js", "sap/ui/layout/library-preload.json", "sap/ui/model/Filter.js", "sap/ui/model/FilterOperator.js", "sap/ui/model/Sorter.js", "sap/ui/model/json/JSONModel.js", "sap/ui/model/resource/ResourceModel.js", "sap/ui/thirdparty/URI.js", "sap/ui/thirdparty/hasher.js", "sap/ui/thirdparty/jquery.js", "sap/ui/util/Storage.js", "sap/uxap/BlockBase.js", "sap/uxap/ObjectPageHeader.js", "sap/uxap/ObjectPageHeaderActionButton.js", "sap/uxap/ObjectPageLayout.js", "sap/uxap/ObjectPageLazyLoader.js", "sap/uxap/ObjectPageSection.js", "sap/uxap/ObjectPageSubSection.js", "sap/uxap/ThrottledTaskHelper.js", "ui5loader-autoconfig.js"],
      "includes" : ["sap/ui/documentation/library.js", "sap/ui/documentation/manifest.json", "sap/ui/documentation/sdk/Component.js", "sap/ui/documentation/sdk/blocks/IndexEntry.js", "sap/ui/documentation/sdk/blocks/IndexEntry.view.xml", "sap/ui/documentation/sdk/controller/ApiDetail.controller.js", "sap/ui/documentation/sdk/controller/ApiDetailIndexDeprecatedExperimental.controller.js", "sap/ui/documentation/sdk/controller/ApiDetailInitial.controller.js", "sap/ui/documentation/sdk/controller/ApiMaster.controller.js", "sap/ui/documentation/sdk/controller/App.controller.js", "sap/ui/documentation/sdk/controller/BaseController.js", "sap/ui/documentation/sdk/controller/Code.controller.js", "sap/ui/documentation/sdk/controller/Controls.controller.js", "sap/ui/documentation/sdk/controller/ControlsMaster.controller.js", "sap/ui/documentation/sdk/controller/DemoApps.controller.js", "sap/ui/documentation/sdk/controller/Downloads.controller.js", "sap/ui/documentation/sdk/controller/Entity.controller.js", "sap/ui/documentation/sdk/controller/ErrorHandler.js", "sap/ui/documentation/sdk/controller/Group.controller.js", "sap/ui/documentation/sdk/controller/License.controller.js", "sap/ui/documentation/sdk/controller/LiveEditor.controller.js", "sap/ui/documentation/sdk/controller/MasterTreeBaseController.js", "sap/ui/documentation/sdk/controller/ReleaseNotes.controller.js", "sap/ui/documentation/sdk/controller/Sample.controller.js", "sap/ui/documentation/sdk/controller/SearchPage.controller.js", "sap/ui/documentation/sdk/controller/SubApiDetail.controller.js", "sap/ui/documentation/sdk/controller/TermsOfUse.controller.js", "sap/ui/documentation/sdk/controller/Tools.controller.js", "sap/ui/documentation/sdk/controller/TopicDetail.controller.js", "sap/ui/documentation/sdk/controller/TopicDetailInitial.controller.js", "sap/ui/documentation/sdk/controller/TopicMaster.controller.js", "sap/ui/documentation/sdk/controller/Welcome.controller.js", "sap/ui/documentation/sdk/controller/util/APIInfo.js", "sap/ui/documentation/sdk/controller/util/ConfigUtil.js", "sap/ui/documentation/sdk/controller/util/ControlsInfo.js", "sap/ui/documentation/sdk/controller/util/EntityInfo.js", "sap/ui/documentation/sdk/controller/util/JSDocUtil.js", "sap/ui/documentation/sdk/controller/util/TreeUtil.js", "sap/ui/documentation/sdk/controller/util/XML2JSONUtils.js", "sap/ui/documentation/sdk/controls/BorrowedList.js", "sap/ui/documentation/sdk/controls/DemokitTreeItem.js", "sap/ui/documentation/sdk/controls/DemokitTreeItemRenderer.js", "sap/ui/documentation/sdk/controls/JSDocText.js", "sap/ui/documentation/sdk/controls/LightTable.js", "sap/ui/documentation/sdk/controls/ObjectPageSubSection.js", "sap/ui/documentation/sdk/controls/ParamText.js", "sap/ui/documentation/sdk/controls/Row.js", "sap/ui/documentation/sdk/controls/Search.js", "sap/ui/documentation/sdk/controls/TitleLink.js", "sap/ui/documentation/sdk/manifest.json", "sap/ui/documentation/sdk/model/formatter.js", "sap/ui/documentation/sdk/model/libraryData.js", "sap/ui/documentation/sdk/model/models.js", "sap/ui/documentation/sdk/model/sourceFileDownloader.js", "sap/ui/documentation/sdk/util/DocumentationRouter.js", "sap/ui/documentation/sdk/util/ToggleFullScreenHandler.js", "sap/ui/documentation/sdk/view/AboutDialog.fragment.xml", "sap/ui/documentation/sdk/view/ApiDetail.view.xml", "sap/ui/documentation/sdk/view/ApiDetailDeprecated.view.xml", "sap/ui/documentation/sdk/view/ApiDetailExperimental.view.xml", "sap/ui/documentation/sdk/view/ApiDetailInitial.view.xml", "sap/ui/documentation/sdk/view/ApiDetailSince.view.xml", "sap/ui/documentation/sdk/view/ApiMaster.view.xml", "sap/ui/documentation/sdk/view/App.view.xml", "sap/ui/documentation/sdk/view/BlockLayoutCell.fragment.xml", "sap/ui/documentation/sdk/view/BlockLayoutTeaserCell.fragment.xml", "sap/ui/documentation/sdk/view/ChangeVersionDialog.fragment.xml", "sap/ui/documentation/sdk/view/Code.view.xml", "sap/ui/documentation/sdk/view/Controls.view.xml", "sap/ui/documentation/sdk/view/ControlsMaster.view.xml", "sap/ui/documentation/sdk/view/DemoApps.view.xml", "sap/ui/documentation/sdk/view/Downloads.view.xml", "sap/ui/documentation/sdk/view/Empty.view.xml", "sap/ui/documentation/sdk/view/Entity.view.xml", "sap/ui/documentation/sdk/view/FeedbackDialog.fragment.xml", "sap/ui/documentation/sdk/view/Footer.fragment.xml", "sap/ui/documentation/sdk/view/Group.view.xml", "sap/ui/documentation/sdk/view/LegalDisclaimerPopover.fragment.xml", "sap/ui/documentation/sdk/view/License.view.xml", "sap/ui/documentation/sdk/view/LiveEditor.view.xml", "sap/ui/documentation/sdk/view/NotFound.view.xml", "sap/ui/documentation/sdk/view/ReleaseDialog.fragment.xml", "sap/ui/documentation/sdk/view/ReleaseNotes.view.xml", "sap/ui/documentation/sdk/view/Sample.view.xml", "sap/ui/documentation/sdk/view/SearchPage.view.xml", "sap/ui/documentation/sdk/view/SubApiDetail.view.xml", "sap/ui/documentation/sdk/view/TermsOfUse.view.xml", "sap/ui/documentation/sdk/view/Tools.view.xml", "sap/ui/documentation/sdk/view/TopicDetail.view.xml", "sap/ui/documentation/sdk/view/TopicDetailInitial.view.xml", "sap/ui/documentation/sdk/view/TopicMaster.view.xml", "sap/ui/documentation/sdk/view/VersionInfo.view.xml", "sap/ui/documentation/sdk/view/Welcome.view.xml", "sap/ui/documentation/sdk/view/appSettingsDialog.fragment.xml", "sap/ui/documentation/sdk/view/viewSettingsDialog.fragment.xml"]
    },
    {
      "name" : "sap/ui/documentation/library.js",
      "description" : "Initialization Code and shared classes of library sap.ui.documentation.",
      "size" : 4620,
      "compressedSize" : 1828,
      "required" : ["sap/base/Log.js", "sap/m/library.js", "sap/ui/core/library.js", "sap/ui/core/util/LibraryInfo.js", "sap/ui/thirdparty/jquery.js", "ui5loader-autoconfig.js"],
      "includes" : []
    },
    {
      "name" : "sap/ui/documentation/manifest.json",
      "size" : 1426,
      "required" : [],
      "includes" : []
    },
    {
      "name" : "sap/ui/documentation/sdk/Component.js",
      "description" : "! OpenUI5 (c) Copyright 2009-2019 SAP SE or an SAP affiliate company. Licensed under the Apache License, Version 2.0 - see LICENSE.txt.",
      "size" : 4820,
      "compressedSize" : 2307,
      "required" : ["sap/base/util/Version.js", "sap/m/ColumnListItem.js", "sap/ui/Device.js", "sap/ui/VersionInfo.js", "sap/ui/core/UIComponent.js", "sap/ui/documentation/sdk/controller/ErrorHandler.js", "sap/ui/documentation/sdk/controller/util/ConfigUtil.js", "sap/ui/documentation/sdk/model/models.js", "sap/ui/documentation/sdk/util/DocumentationRouter.js", "sap/ui/model/json/JSONModel.js", "sap/ui/thirdparty/jquery.js", "ui5loader-autoconfig.js"],
      "includes" : []
    },
    {
      "name" : "sap/ui/documentation/sdk/blocks/IndexEntry.js",
      "description" : "! OpenUI5 (c) Copyright 2009-2019 SAP SE or an SAP affiliate company. Licensed under the Apache License, Version 2.0 - see LICENSE.txt.",
      "size" : 760,
      "compressedSize" : 584,
      "required" : ["sap/ui/documentation/sdk/model/formatter.js", "sap/uxap/BlockBase.js", "ui5loader-autoconfig.js"],
      "includes" : []
    },
    {
      "name" : "sap/ui/documentation/sdk/blocks/IndexEntry.view.xml",
      "size" : 892,
      "required" : ["sap/m/CustomListItem.js", "sap/m/List.js", "sap/ui/core/mvc/XMLView.js", "sap/ui/documentation/sdk/blocks/IndexEntry.controller.js", "sap/ui/documentation/sdk/controls/JSDocText.js"],
      "includes" : []
    },
    {
      "name" : "sap/ui/documentation/sdk/controller/ApiDetail.controller.js",
      "description" : "global location",
      "size" : 17199,
      "compressedSize" : 7024,
      "required" : ["sap/base/Log.js", "sap/ui/core/library.js", "sap/ui/documentation/sdk/controller/BaseController.js", "sap/ui/documentation/sdk/controller/util/APIInfo.js", "sap/ui/documentation/sdk/controller/util/ControlsInfo.js", "sap/ui/documentation/sdk/model/formatter.js", "sap/ui/documentation/sdk/util/ToggleFullScreenHandler.js", "sap/ui/model/json/JSONModel.js", "ui5loader-autoconfig.js"],
      "includes" : []
    },
    {
      "name" : "sap/ui/documentation/sdk/controller/ApiDetailIndexDeprecatedExperimental.controller.js",
      "description" : "global location",
      "size" : 4889,
      "compressedSize" : 2357,
      "required" : ["sap/ui/documentation/sdk/controller/BaseController.js", "sap/ui/documentation/sdk/controller/util/APIInfo.js", "sap/ui/documentation/sdk/controller/util/JSDocUtil.js", "sap/ui/documentation/sdk/model/formatter.js", "sap/ui/model/json/JSONModel.js", "sap/ui/thirdparty/jquery.js", "ui5loader-autoconfig.js"],
      "includes" : []
    },
    {
      "name" : "sap/ui/documentation/sdk/controller/ApiDetailInitial.controller.js",
      "description" : "global location",
      "size" : 1332,
      "compressedSize" : 641,
      "required" : ["sap/ui/Device.js", "sap/ui/documentation/sdk/controller/BaseController.js", "ui5loader-autoconfig.js"],
      "includes" : []
    },
    {
      "name" : "sap/ui/documentation/sdk/controller/ApiMaster.controller.js",
      "description" : "global history",
      "size" : 6601,
      "compressedSize" : 3498,
      "required" : ["sap/base/Log.js", "sap/m/library.js", "sap/ui/Device.js", "sap/ui/documentation/sdk/controller/MasterTreeBaseController.js", "sap/ui/documentation/sdk/controller/util/APIInfo.js", "sap/ui/model/Filter.js", "sap/ui/model/FilterOperator.js", "sap/ui/model/json/JSONModel.js", "ui5loader-autoconfig.js"],
      "includes" : []
    },
    {
      "name" : "sap/ui/documentation/sdk/controller/App.controller.js",
      "description" : "! OpenUI5 (c) Copyright 2009-2019 SAP SE or an SAP affiliate company. Licensed under the Apache License, Version 2.0 - see LICENSE.txt.",
      "size" : 26428,
      "compressedSize" : 16100,
      "required" : ["sap/base/Log.js", "sap/base/util/Version.js", "sap/m/MessageBox.js", "sap/m/library.js", "sap/ui/Device.js", "sap/ui/core/Fragment.js", "sap/ui/core/IconPool.js", "sap/ui/core/ResizeHandler.js", "sap/ui/core/syncStyleClass.js", "sap/ui/documentation/library.js", "sap/ui/documentation/sdk/controller/BaseController.js", "sap/ui/model/json/JSONModel.js", "sap/ui/thirdparty/jquery.js", "ui5loader-autoconfig.js"],
      "includes" : []
    },
    {
      "name" : "sap/ui/documentation/sdk/controller/BaseController.js",
      "description" : "global history",
      "size" : 6832,
      "compressedSize" : 2912,
      "required" : ["sap/m/library.js", "sap/ui/Device.js", "sap/ui/core/mvc/Controller.js", "sap/ui/core/routing/History.js", "sap/ui/documentation/library.js", "sap/ui/documentation/sdk/controller/util/APIInfo.js", "ui5loader-autoconfig.js"],
      "includes" : []
    },
    {
      "name" : "sap/ui/documentation/sdk/controller/Code.controller.js",
      "description" : "global history",
      "size" : 10914,
      "compressedSize" : 6219,
      "required" : ["sap/ui/documentation/sdk/controller/BaseController.js", "sap/ui/documentation/sdk/controller/util/ControlsInfo.js", "sap/ui/model/json/JSONModel.js", "sap/ui/thirdparty/URI.js", "sap/ui/thirdparty/jquery.js", "ui5loader-autoconfig.js"],
      "includes" : []
    },
    {
      "name" : "sap/ui/documentation/sdk/controller/Controls.controller.js",
      "description" : "global history",
      "size" : 1826,
      "compressedSize" : 866,
      "required" : ["sap/ui/Device.js", "sap/ui/documentation/sdk/controller/BaseController.js", "ui5loader-autoconfig.js"],
      "includes" : []
    },
    {
      "name" : "sap/ui/documentation/sdk/controller/ControlsMaster.controller.js",
      "description" : "! OpenUI5 (c) Copyright 2009-2019 SAP SE or an SAP affiliate company. Licensed under the Apache License, Version 2.0 - see LICENSE.txt.",
      "size" : 22707,
      "compressedSize" : 11536,
      "required" : ["jquery.sap.global.js", "sap/base/util/UriParameters.js", "sap/base/util/Version.js", "sap/m/GroupHeaderListItem.js", "sap/ui/Device.js", "sap/ui/documentation/sdk/controller/BaseController.js", "sap/ui/documentation/sdk/controller/util/ControlsInfo.js", "sap/ui/model/Filter.js", "sap/ui/model/Sorter.js", "sap/ui/model/json/JSONModel.js", "sap/ui/thirdparty/jquery.js", "sap/ui/util/Storage.js", "ui5loader-autoconfig.js"],
      "includes" : []
    },
    {
      "name" : "sap/ui/documentation/sdk/controller/DemoApps.controller.js",
      "description" : "global history",
      "size" : 10526,
      "compressedSize" : 4493,
      "required" : ["sap/base/Log.js", "sap/m/MessageBox.js", "sap/m/MessageToast.js", "sap/ui/Device.js", "sap/ui/documentation/sdk/controller/BaseController.js", "sap/ui/documentation/sdk/model/formatter.js", "sap/ui/documentation/sdk/model/libraryData.js", "sap/ui/documentation/sdk/model/sourceFileDownloader.js", "sap/ui/model/Filter.js", "sap/ui/model/FilterOperator.js", "sap/ui/model/json/JSONModel.js", "sap/ui/model/resource/ResourceModel.js", "sap/ui/thirdparty/jquery.js", "ui5loader-autoconfig.js"],
      "includes" : []
    },
    {
      "name" : "sap/ui/documentation/sdk/controller/Downloads.controller.js",
      "description" : "global history",
      "size" : 725,
      "compressedSize" : 464,
      "required" : ["sap/ui/documentation/sdk/controller/BaseController.js", "ui5loader-autoconfig.js"],
      "includes" : []
    },
    {
      "name" : "sap/ui/documentation/sdk/controller/Entity.controller.js",
      "description" : "global location",
      "size" : 17031,
      "compressedSize" : 8104,
      "required" : ["sap/m/HBox.js", "sap/m/Label.js", "sap/m/Link.js", "sap/m/ObjectAttribute.js", "sap/m/Text.js", "sap/ui/documentation/sdk/controller/BaseController.js", "sap/ui/documentation/sdk/controller/util/APIInfo.js", "sap/ui/documentation/sdk/controller/util/ControlsInfo.js", "sap/ui/documentation/sdk/controller/util/EntityInfo.js", "sap/ui/documentation/sdk/controller/util/JSDocUtil.js", "sap/ui/documentation/sdk/util/ToggleFullScreenHandler.js", "sap/ui/model/json/JSONModel.js", "ui5loader-autoconfig.js"],
      "includes" : []
    },
    {
      "name" : "sap/ui/documentation/sdk/controller/ErrorHandler.js",
      "description" : "! OpenUI5 (c) Copyright 2009-2019 SAP SE or an SAP affiliate company. Licensed under the Apache License, Version 2.0 - see LICENSE.txt.",
      "size" : 2278,
      "compressedSize" : 1051,
      "required" : ["sap/m/MessageBox.js", "sap/ui/base/Object.js", "ui5loader-autoconfig.js"],
      "includes" : []
    },
    {
      "name" : "sap/ui/documentation/sdk/controller/Group.controller.js",
      "description" : "global location",
      "size" : 958,
      "compressedSize" : 485,
      "required" : ["sap/ui/documentation/sdk/controller/BaseController.js", "ui5loader-autoconfig.js"],
      "includes" : []
    },
    {
      "name" : "sap/ui/documentation/sdk/controller/License.controller.js",
      "description" : "global location",
      "size" : 1124,
      "compressedSize" : 892,
      "required" : ["sap/ui/documentation/library.js", "sap/ui/documentation/sdk/controller/BaseController.js", "ui5loader-autoconfig.js"],
      "includes" : []
    },
    {
      "name" : "sap/ui/documentation/sdk/controller/LiveEditor.controller.js",
      "description" : "global history",
      "size" : 6119,
      "compressedSize" : 2859,
      "required" : ["sap/m/library.js", "sap/ui/documentation/sdk/controller/BaseController.js", "sap/ui/model/json/JSONModel.js", "sap/uxap/ThrottledTaskHelper.js", "ui5loader-autoconfig.js"],
      "includes" : []
    },
    {
      "name" : "sap/ui/documentation/sdk/controller/MasterTreeBaseController.js",
      "description" : "Common controller for the API Reference & Documentation master controllers (as they both use a tree)",
      "size" : 4956,
      "compressedSize" : 2223,
      "required" : ["sap/ui/documentation/sdk/controller/BaseController.js", "sap/ui/documentation/sdk/controller/util/TreeUtil.js", "sap/ui/model/Filter.js", "sap/ui/model/FilterOperator.js", "sap/ui/thirdparty/jquery.js", "ui5loader-autoconfig.js"],
      "includes" : []
    },
    {
      "name" : "sap/ui/documentation/sdk/controller/ReleaseNotes.controller.js",
      "description" : "global location",
      "size" : 5518,
      "compressedSize" : 3040,
      "required" : ["sap/base/Log.js", "sap/base/util/Version.js", "sap/ui/documentation/library.js", "sap/ui/documentation/sdk/controller/BaseController.js", "sap/ui/model/json/JSONModel.js", "sap/ui/thirdparty/jquery.js", "ui5loader-autoconfig.js"],
      "includes" : []
    },
    {
      "name" : "sap/ui/documentation/sdk/controller/Sample.controller.js",
      "description" : "global location",
      "size" : 10864,
      "compressedSize" : 5642,
      "required" : ["sap/base/Log.js", "sap/m/Text.js", "sap/m/library.js", "sap/ui/Device.js", "sap/ui/core/Component.js", "sap/ui/core/ComponentContainer.js", "sap/ui/core/HTML.js", "sap/ui/core/routing/History.js", "sap/ui/documentation/sdk/controller/BaseController.js", "sap/ui/documentation/sdk/controller/util/ControlsInfo.js", "sap/ui/documentation/sdk/util/ToggleFullScreenHandler.js", "sap/ui/model/json/JSONModel.js", "sap/ui/thirdparty/jquery.js", "ui5loader-autoconfig.js"],
      "includes" : []
    },
    {
      "name" : "sap/ui/documentation/sdk/controller/SearchPage.controller.js",
      "description" : "global location",
      "size" : 9585,
      "compressedSize" : 5088,
      "required" : ["sap/base/Log.js", "sap/m/GroupHeaderListItem.js", "sap/ui/documentation/sdk/controller/BaseController.js", "sap/ui/model/json/JSONModel.js", "sap/ui/thirdparty/jquery.js", "ui5loader-autoconfig.js"],
      "includes" : []
    },
    {
      "name" : "sap/ui/documentation/sdk/controller/SubApiDetail.controller.js",
      "description" : "global location",
      "size" : 18493,
      "compressedSize" : 9094,
      "required" : ["sap/m/HBox.js", "sap/m/Label.js", "sap/m/Link.js", "sap/m/ObjectAttribute.js", "sap/m/Popover.js", "sap/m/Text.js", "sap/m/library.js", "sap/ui/documentation/sdk/controller/BaseController.js", "sap/ui/documentation/sdk/controller/util/APIInfo.js", "sap/ui/documentation/sdk/controller/util/ControlsInfo.js", "sap/ui/documentation/sdk/model/formatter.js", "sap/ui/documentation/sdk/util/ToggleFullScreenHandler.js", "sap/ui/model/json/JSONModel.js", "sap/ui/thirdparty/jquery.js", "ui5loader-autoconfig.js"],
      "includes" : []
    },
    {
      "name" : "sap/ui/documentation/sdk/controller/TermsOfUse.controller.js",
      "description" : "global location",
      "size" : 990,
      "compressedSize" : 731,
      "required" : ["sap/ui/documentation/sdk/controller/BaseController.js", "ui5loader-autoconfig.js"],
      "includes" : []
    },
    {
      "name" : "sap/ui/documentation/sdk/controller/Tools.controller.js",
      "description" : "global location",
      "size" : 1678,
      "compressedSize" : 797,
      "required" : ["sap/base/Log.js", "sap/ui/Device.js", "sap/ui/documentation/sdk/controller/BaseController.js", "ui5loader-autoconfig.js"],
      "includes" : []
    },
    {
      "name" : "sap/ui/documentation/sdk/controller/TopicDetail.controller.js",
      "description" : "global location",
      "size" : 3474,
      "compressedSize" : 2102,
      "required" : ["jquery.sap.global.js", "sap/ui/Device.js", "sap/ui/documentation/sdk/controller/BaseController.js", "sap/ui/documentation/sdk/controller/util/XML2JSONUtils.js", "sap/ui/documentation/sdk/util/ToggleFullScreenHandler.js", "sap/ui/model/json/JSONModel.js", "ui5loader-autoconfig.js"],
      "includes" : []
    },
    {
      "name" : "sap/ui/documentation/sdk/controller/TopicDetailInitial.controller.js",
      "description" : "global location",
      "size" : 2737,
      "compressedSize" : 1414,
      "required" : ["sap/ui/Device.js", "sap/ui/documentation/sdk/controller/BaseController.js", "sap/ui/thirdparty/jquery.js", "ui5loader-autoconfig.js"],
      "includes" : []
    },
    {
      "name" : "sap/ui/documentation/sdk/controller/TopicMaster.controller.js",
      "description" : "global history",
      "size" : 5044,
      "compressedSize" : 2287,
      "required" : ["sap/base/Log.js", "sap/m/library.js", "sap/ui/Device.js", "sap/ui/documentation/sdk/controller/MasterTreeBaseController.js", "sap/ui/model/json/JSONModel.js", "ui5loader-autoconfig.js"],
      "includes" : []
    },
    {
      "name" : "sap/ui/documentation/sdk/controller/Welcome.controller.js",
      "description" : "global history",
      "size" : 3112,
      "compressedSize" : 1619,
      "required" : ["sap/base/Log.js", "sap/m/library.js", "sap/ui/Device.js", "sap/ui/documentation/sdk/controller/BaseController.js", "sap/ui/model/json/JSONModel.js", "sap/ui/model/resource/ResourceModel.js", "ui5loader-autoconfig.js"],
      "includes" : []
    },
    {
      "name" : "sap/ui/documentation/sdk/controller/util/APIInfo.js",
      "description" : "Provides reuse functionality for reading documentation from api.json files (as created by the UI5 JSDoc3 template/plugin)",
      "size" : 4012,
      "compressedSize" : 1931,
      "required" : ["sap/base/Log.js", "sap/ui/thirdparty/jquery.js", "ui5loader-autoconfig.js"],
      "includes" : []
    },
    {
      "name" : "sap/ui/documentation/sdk/controller/util/ConfigUtil.js",
      "description" : "Utility class that facilitates route configuration handling",
      "size" : 1983,
      "compressedSize" : 1224,
      "required" : ["sap/base/strings/capitalize.js", "sap/ui/base/Object.js", "ui5loader-autoconfig.js"],
      "includes" : []
    },
    {
      "name" : "sap/ui/documentation/sdk/controller/util/ControlsInfo.js",
      "description" : "Provides information about 'explored' samples.",
      "size" : 12468,
      "compressedSize" : 5960,
      "required" : ["sap/base/Log.js", "sap/ui/documentation/library.js", "sap/ui/thirdparty/jquery.js", "ui5loader-autoconfig.js"],
      "includes" : []
    },
    {
      "name" : "sap/ui/documentation/sdk/controller/util/EntityInfo.js",
      "description" : "Provides reuse functionality for reading documentation from metamodel entities",
      "size" : 9900,
      "compressedSize" : 5081,
      "required" : ["sap/base/Log.js", "sap/base/util/ObjectPath.js", "sap/ui/documentation/sdk/controller/util/APIInfo.js", "sap/ui/documentation/sdk/thirdparty/jsanalyzer/ModuleAnalyzer.js", "sap/ui/thirdparty/jquery.js", "ui5loader-autoconfig.js"],
      "includes" : []
    },
    {
      "name" : "sap/ui/documentation/sdk/controller/util/JSDocUtil.js",
      "description" : "Provides reuse functionality for reading documentation from api.json files (as created by the UI5 JSDoc3 template/plugin)",
      "size" : 2755,
      "compressedSize" : 1039,
      "required" : ["sap/base/strings/escapeRegExp.js", "ui5loader-autoconfig.js"],
      "includes" : []
    },
    {
      "name" : "sap/ui/documentation/sdk/controller/util/TreeUtil.js",
      "description" : "Utility class that helps find the path to a specific node in a tree",
      "size" : 1781,
      "compressedSize" : 727,
      "required" : ["ui5loader-autoconfig.js"],
      "includes" : []
    },
    {
      "name" : "sap/ui/documentation/sdk/controller/util/XML2JSONUtils.js",
      "description" : "! OpenUI5 (c) Copyright 2009-2019 SAP SE or an SAP affiliate company. Licensed under the Apache License, Version 2.0 - see LICENSE.txt.",
      "size" : 4523,
      "compressedSize" : 1858,
      "required" : ["sap/ui/thirdparty/jquery.js", "ui5loader-autoconfig.js"],
      "includes" : []
    },
    {
      "name" : "sap/ui/documentation/sdk/controls/BorrowedList.js",
      "description" : "! OpenUI5 (c) Copyright 2009-2019 SAP SE or an SAP affiliate company. Licensed under the Apache License, Version 2.0 - see LICENSE.txt.",
      "size" : 1126,
      "compressedSize" : 615,
      "required" : ["sap/ui/core/Control.js", "ui5loader-autoconfig.js"],
      "includes" : []
    },
    {
      "name" : "sap/ui/documentation/sdk/controls/DemokitTreeItem.js",
      "description" : "! OpenUI5 (c) Copyright 2009-2019 SAP SE or an SAP affiliate company. Licensed under the Apache License, Version 2.0 - see LICENSE.txt.",
      "size" : 1169,
      "compressedSize" : 735,
      "required" : ["sap/m/TreeItemBase.js", "ui5loader-autoconfig.js"],
      "includes" : []
    },
    {
      "name" : "sap/ui/documentation/sdk/controls/DemokitTreeItemRenderer.js",
      "description" : "! OpenUI5 (c) Copyright 2009-2019 SAP SE or an SAP affiliate company. Licensed under the Apache License, Version 2.0 - see LICENSE.txt.",
      "size" : 1675,
      "compressedSize" : 1088,
      "required" : ["sap/m/TreeItemBaseRenderer.js", "sap/ui/core/Renderer.js", "ui5loader-autoconfig.js"],
      "includes" : []
    },
    {
      "name" : "sap/ui/documentation/sdk/controls/JSDocText.js",
      "description" : "! OpenUI5 (c) Copyright 2009-2019 SAP SE or an SAP affiliate company. Licensed under the Apache License, Version 2.0 - see LICENSE.txt.",
      "size" : 1019,
      "compressedSize" : 537,
      "required" : ["sap/base/security/sanitizeHTML.js", "sap/ui/core/Control.js", "ui5loader-autoconfig.js"],
      "includes" : []
    },
    {
      "name" : "sap/ui/documentation/sdk/controls/LightTable.js",
      "description" : "! OpenUI5 (c) Copyright 2009-2019 SAP SE or an SAP affiliate company. Licensed under the Apache License, Version 2.0 - see LICENSE.txt.",
      "size" : 2336,
      "compressedSize" : 1130,
      "required" : ["sap/ui/core/Control.js", "ui5loader-autoconfig.js"],
      "includes" : []
    },
    {
      "name" : "sap/ui/documentation/sdk/controls/ObjectPageSubSection.js",
      "description" : "! OpenUI5 (c) Copyright 2009-2019 SAP SE or an SAP affiliate company. Licensed under the Apache License, Version 2.0 - see LICENSE.txt.",
      "size" : 1430,
      "compressedSize" : 832,
      "required" : ["sap/ui/core/Control.js", "sap/uxap/ObjectPageSubSection.js", "ui5loader-autoconfig.js"],
      "includes" : []
    },
    {
      "name" : "sap/ui/documentation/sdk/controls/ParamText.js",
      "description" : "! OpenUI5 (c) Copyright 2009-2019 SAP SE or an SAP affiliate company. Licensed under the Apache License, Version 2.0 - see LICENSE.txt.",
      "size" : 4098,
      "compressedSize" : 2072,
      "required" : ["sap/ui/Device.js", "sap/ui/core/Control.js", "ui5loader-autoconfig.js"],
      "includes" : []
    },
    {
      "name" : "sap/ui/documentation/sdk/controls/Row.js",
      "description" : "! OpenUI5 (c) Copyright 2009-2019 SAP SE or an SAP affiliate company. Licensed under the Apache License, Version 2.0 - see LICENSE.txt.",
      "size" : 811,
      "compressedSize" : 421,
      "required" : ["sap/ui/core/Element.js", "ui5loader-autoconfig.js"],
      "includes" : []
    },
    {
      "name" : "sap/ui/documentation/sdk/controls/Search.js",
      "description" : "! OpenUI5 (c) Copyright 2009-2019 SAP SE or an SAP affiliate company. Licensed under the Apache License, Version 2.0 - see LICENSE.txt.",
      "size" : 7289,
      "compressedSize" : 3045,
      "required" : ["sap/m/Button.js", "sap/m/SearchField.js", "sap/m/library.js", "sap/ui/core/Control.js", "ui5loader-autoconfig.js"],
      "includes" : []
    },
    {
      "name" : "sap/ui/documentation/sdk/controls/TitleLink.js",
      "description" : "! OpenUI5 (c) Copyright 2009-2019 SAP SE or an SAP affiliate company. Licensed under the Apache License, Version 2.0 - see LICENSE.txt.",
      "size" : 6637,
      "compressedSize" : 2634,
      "required" : ["sap/m/Title.js", "sap/m/Toolbar.js", "sap/ui/Device.js", "sap/ui/core/library.js", "ui5loader-autoconfig.js"],
      "includes" : []
    },
    {
      "name" : "sap/ui/documentation/sdk/i18n/i18n.properties",
      "size" : 1709,
      "required" : [],
      "includes" : []
    },
    {
      "name" : "sap/ui/documentation/sdk/manifest.json",
      "size" : 8083,
      "required" : [],
      "includes" : []
    },
    {
      "name" : "sap/ui/documentation/sdk/model/formatter.js",
      "description" : "! OpenUI5 (c) Copyright 2009-2019 SAP SE or an SAP affiliate company. Licensed under the Apache License, Version 2.0 - see LICENSE.txt.",
      "size" : 5121,
      "compressedSize" : 1951,
      "required" : ["sap/ui/documentation/sdk/controller/util/JSDocUtil.js", "ui5loader-autoconfig.js"],
      "includes" : []
    },
    {
      "name" : "sap/ui/documentation/sdk/model/libraryData.js",
      "description" : "! OpenUI5 (c) Copyright 2009-2019 SAP SE or an SAP affiliate company. Licensed under the Apache License, Version 2.0 - see LICENSE.txt.",
      "size" : 5711,
      "compressedSize" : 1630,
      "required" : ["sap/base/Log.js", "sap/ui/documentation/library.js", "sap/ui/thirdparty/jquery.js", "ui5loader-autoconfig.js"],
      "includes" : []
    },
    {
      "name" : "sap/ui/documentation/sdk/model/models.js",
      "description" : "! OpenUI5 (c) Copyright 2009-2019 SAP SE or an SAP affiliate company. Licensed under the Apache License, Version 2.0 - see LICENSE.txt.",
      "size" : 438,
      "compressedSize" : 341,
      "required" : ["sap/ui/Device.js", "sap/ui/model/json/JSONModel.js", "ui5loader-autoconfig.js"],
      "includes" : []
    },
    {
      "name" : "sap/ui/documentation/sdk/model/sourceFileDownloader.js",
      "description" : "global Promise",
      "size" : 740,
      "compressedSize" : 457,
      "required" : ["sap/ui/thirdparty/jquery.js", "ui5loader-autoconfig.js"],
      "includes" : []
    },
    {
      "name" : "sap/ui/documentation/sdk/util/DocumentationRouter.js",
      "description" : "Provides a customized router class for the 'documentation' app.",
      "size" : 4814,
      "compressedSize" : 2631,
      "required" : ["sap/m/routing/Router.js", "sap/ui/core/routing/History.js", "sap/ui/thirdparty/hasher.js", "ui5loader-autoconfig.js"],
      "includes" : []
    },
    {
      "name" : "sap/ui/documentation/sdk/util/ToggleFullScreenHandler.js",
      "description" : "Provides a simple search feature",
      "size" : 1429,
      "compressedSize" : 919,
      "required" : ["ui5loader-autoconfig.js"],
      "includes" : []
    },
    {
      "name" : "sap/ui/documentation/sdk/view/AboutDialog.fragment.xml",
      "size" : 5813,
      "required" : ["sap/m/Button.js", "sap/m/Dialog.js", "sap/m/Image.js", "sap/m/Link.js", "sap/m/MessageStrip.js", "sap/m/NavContainer.js", "sap/m/Page.js", "sap/m/Text.js", "sap/m/VBox.js", "sap/ui/core/CustomData.js", "sap/ui/core/Fragment.js", "sap/ui/core/Title.js", "sap/ui/documentation/sdk/controls/JSDocText.js", "sap/ui/layout/VerticalLayout.js", "sap/ui/layout/form/Form.js", "sap/ui/layout/form/FormContainer.js", "sap/ui/layout/form/FormElement.js", "sap/ui/layout/form/GridLayout.js", "sap/ui/layout/form/ResponsiveGridLayout.js"],
      "includes" : []
    },
    {
      "name" : "sap/ui/documentation/sdk/view/ApiDetail.view.xml",
      "size" : 311,
      "required" : ["sap/m/Page.js", "sap/ui/core/mvc/XMLView.js", "sap/ui/documentation/sdk/controller/ApiDetail.controller.js"],
      "includes" : []
    },
    {
      "name" : "sap/ui/documentation/sdk/view/ApiDetailDeprecated.view.xml",
      "size" : 1582,
      "required" : ["sap/m/FeedListItem.js", "sap/m/List.js", "sap/m/MessageStrip.js", "sap/ui/core/mvc/XMLView.js", "sap/ui/documentation/sdk/controller/ApiDetailIndexDeprecatedExperimental.controller.js", "sap/uxap/ObjectPageHeader.js", "sap/uxap/ObjectPageLayout.js", "sap/uxap/ObjectPageSection.js", "sap/uxap/ObjectPageSubSection.js"],
      "includes" : []
    },
    {
      "name" : "sap/ui/documentation/sdk/view/ApiDetailExperimental.view.xml",
      "size" : 2557,
      "required" : ["sap/m/FeedListItem.js", "sap/m/List.js", "sap/m/MessageStrip.js", "sap/ui/core/mvc/XMLView.js", "sap/ui/documentation/sdk/controller/ApiDetailIndexDeprecatedExperimental.controller.js", "sap/uxap/ObjectPageHeader.js", "sap/uxap/ObjectPageLayout.js", "sap/uxap/ObjectPageSection.js", "sap/uxap/ObjectPageSubSection.js"],
      "includes" : []
    },
    {
      "name" : "sap/ui/documentation/sdk/view/ApiDetailInitial.view.xml",
      "size" : 7386,
      "required" : ["sap/m/Image.js", "sap/m/Label.js", "sap/m/Page.js", "sap/m/Text.js", "sap/ui/core/Fragment.js", "sap/ui/core/mvc/XMLView.js", "sap/ui/documentation/sdk/controller/ApiDetailInitial.controller.js", "sap/ui/documentation/sdk/controls/TitleLink.js", "sap/ui/documentation/sdk/view/Footer.fragment.xml", "sap/ui/layout/BlockLayout.js", "sap/ui/layout/BlockLayoutCell.js", "sap/ui/layout/BlockLayoutRow.js", "sap/ui/layout/VerticalLayout.js"],
      "includes" : []
    },
    {
      "name" : "sap/ui/documentation/sdk/view/ApiDetailSince.view.xml",
      "size" : 861,
      "required" : ["sap/ui/core/mvc/XMLView.js", "sap/ui/documentation/sdk/blocks/IndexEntry.js", "sap/ui/documentation/sdk/controller/ApiDetailIndexDeprecatedExperimental.controller.js", "sap/uxap/ObjectPageHeader.js", "sap/uxap/ObjectPageLayout.js", "sap/uxap/ObjectPageSection.js", "sap/uxap/ObjectPageSubSection.js"],
      "includes" : []
    },
    {
      "name" : "sap/ui/documentation/sdk/view/ApiMaster.view.xml",
      "size" : 1453,
      "required" : ["sap/m/Button.js", "sap/m/CheckBox.js", "sap/m/Page.js", "sap/m/SearchField.js", "sap/m/Toolbar.js", "sap/m/Tree.js", "sap/ui/core/mvc/XMLView.js", "sap/ui/documentation/sdk/controller/ApiMaster.controller.js", "sap/ui/documentation/sdk/controls/DemokitTreeItem.js"],
      "includes" : []
    },
    {
      "name" : "sap/ui/documentation/sdk/view/App.view.xml",
      "size" : 6692,
      "required" : ["sap/m/Bar.js", "sap/m/Button.js", "sap/m/IconTabFilter.js", "sap/m/IconTabHeader.js", "sap/m/Image.js", "sap/m/Menu.js", "sap/m/MenuButton.js", "sap/m/MenuItem.js", "sap/m/ObjectStatus.js", "sap/m/OverflowToolbarLayoutData.js", "sap/m/Page.js", "sap/m/ScrollContainer.js", "sap/m/Select.js", "sap/m/SplitApp.js", "sap/m/ToggleButton.js", "sap/m/ToolbarSpacer.js", "sap/tnt/ToolHeader.js", "sap/ui/core/ExtensionPoint.js", "sap/ui/core/Item.js", "sap/ui/core/mvc/XMLView.js", "sap/ui/documentation/sdk/controller/App.controller.js", "sap/ui/documentation/sdk/controls/Search.js"],
      "includes" : []
    },
    {
      "name" : "sap/ui/documentation/sdk/view/BlockLayoutCell.fragment.xml",
      "size" : 1269,
      "required" : ["sap/m/Label.js", "sap/m/Link.js", "sap/m/Text.js", "sap/ui/core/Fragment.js", "sap/ui/core/Icon.js", "sap/ui/documentation/sdk/controls/TitleLink.js", "sap/ui/layout/BlockLayoutCell.js", "sap/ui/layout/HorizontalLayout.js", "sap/ui/layout/VerticalLayout.js"],
      "includes" : []
    },
    {
      "name" : "sap/ui/documentation/sdk/view/BlockLayoutTeaserCell.fragment.xml",
      "size" : 1356,
      "required" : ["sap/m/Label.js", "sap/m/Link.js", "sap/m/Text.js", "sap/ui/core/Fragment.js", "sap/ui/core/Icon.js", "sap/ui/documentation/sdk/controls/TitleLink.js", "sap/ui/layout/BlockLayoutCell.js", "sap/ui/layout/Grid.js", "sap/ui/layout/HorizontalLayout.js", "sap/ui/layout/VerticalLayout.js"],
      "includes" : []
    },
    {
      "name" : "sap/ui/documentation/sdk/view/ChangeVersionDialog.fragment.xml",
      "size" : 1020,
      "required" : ["sap/m/Bar.js", "sap/m/Button.js", "sap/m/Dialog.js", "sap/m/List.js", "sap/m/SearchField.js", "sap/m/StandardListItem.js", "sap/ui/core/CustomData.js", "sap/ui/core/Fragment.js"],
      "includes" : []
    },
    {
      "name" : "sap/ui/documentation/sdk/view/Code.view.xml",
      "size" : 1800,
      "required" : ["sap/m/Bar.js", "sap/m/Button.js", "sap/m/IconTabFilter.js", "sap/m/IconTabHeader.js", "sap/m/Page.js", "sap/m/PageAccessibleLandmarkInfo.js", "sap/m/Title.js", "sap/ui/codeeditor/CodeEditor.js", "sap/ui/core/mvc/XMLView.js", "sap/ui/documentation/sdk/controller/Code.controller.js", "sap/ui/layout/FixFlex.js"],
      "includes" : []
    },
    {
      "name" : "sap/ui/documentation/sdk/view/Controls.view.xml",
      "size" : 11209,
      "required" : ["sap/m/Image.js", "sap/m/ScrollContainer.js", "sap/m/Text.js", "sap/ui/core/Fragment.js", "sap/ui/core/Icon.js", "sap/ui/core/mvc/XMLView.js", "sap/ui/documentation/sdk/controller/Controls.controller.js", "sap/ui/documentation/sdk/controls/TitleLink.js", "sap/ui/documentation/sdk/view/Footer.fragment.xml", "sap/ui/layout/BlockLayout.js", "sap/ui/layout/BlockLayoutCell.js", "sap/ui/layout/BlockLayoutRow.js", "sap/ui/layout/VerticalLayout.js"],
      "includes" : []
    },
    {
      "name" : "sap/ui/documentation/sdk/view/ControlsMaster.view.xml",
      "size" : 1578,
      "required" : ["sap/m/Button.js", "sap/m/Label.js", "sap/m/List.js", "sap/m/Page.js", "sap/m/SearchField.js", "sap/m/StandardListItem.js", "sap/m/Toolbar.js", "sap/ui/core/mvc/XMLView.js", "sap/ui/documentation/sdk/controller/ControlsMaster.controller.js"],
      "includes" : []
    },
    {
      "name" : "sap/ui/documentation/sdk/view/DemoApps.view.xml",
      "size" : 4394,
      "required" : ["sap/m/Button.js", "sap/m/Image.js", "sap/m/InputListItem.js", "sap/m/Page.js", "sap/m/PageAccessibleLandmarkInfo.js", "sap/m/Panel.js", "sap/m/ScrollContainer.js", "sap/m/SelectDialog.js", "sap/m/Text.js", "sap/m/Title.js", "sap/m/Toolbar.js", "sap/ui/core/CustomData.js", "sap/ui/core/Fragment.js", "sap/ui/core/mvc/XMLView.js", "sap/ui/documentation/sdk/controller/DemoApps.controller.js", "sap/ui/documentation/sdk/view/Footer.fragment.xml", "sap/ui/layout/BlockLayout.js", "sap/ui/layout/BlockLayoutCell.js", "sap/ui/layout/BlockLayoutRow.js", "sap/ui/layout/Grid.js", "sap/ui/layout/HorizontalLayout.js", "sap/ui/layout/VerticalLayout.js"],
      "includes" : []
    },
    {
      "name" : "sap/ui/documentation/sdk/view/Downloads.view.xml",
      "size" : 162,
      "required" : ["sap/m/Label.js", "sap/ui/core/mvc/XMLView.js", "sap/ui/documentation/sdk/controller/Downloads.controller.js"],
      "includes" : []
    },
    {
      "name" : "sap/ui/documentation/sdk/view/Empty.view.xml",
      "size" : 93,
      "required" : ["sap/m/Label.js", "sap/ui/core/mvc/XMLView.js"],
      "includes" : []
    },
    {
      "name" : "sap/ui/documentation/sdk/view/Entity.view.xml",
      "size" : 2715,
      "required" : ["sap/m/Column.js", "sap/m/ColumnListItem.js", "sap/m/FormattedText.js", "sap/m/Label.js", "sap/m/Table.js", "sap/m/Text.js", "sap/ui/core/HTML.js", "sap/ui/core/mvc/XMLView.js", "sap/ui/documentation/sdk/controller/Entity.controller.js", "sap/ui/layout/Grid.js", "sap/ui/layout/VerticalLayout.js", "sap/uxap/ObjectPageHeader.js", "sap/uxap/ObjectPageHeaderActionButton.js", "sap/uxap/ObjectPageLayout.js", "sap/uxap/ObjectPageSection.js", "sap/uxap/ObjectPageSubSection.js"],
      "includes" : []
    },
    {
      "name" : "sap/ui/documentation/sdk/view/FeedbackDialog.fragment.xml",
      "size" : 3819,
      "required" : ["sap/m/Button.js", "sap/m/CheckBox.js", "sap/m/Dialog.js", "sap/m/FlexItemData.js", "sap/m/FormattedText.js", "sap/m/HBox.js", "sap/m/Label.js", "sap/m/Link.js", "sap/m/MessageStrip.js", "sap/m/ObjectStatus.js", "sap/m/TextArea.js", "sap/m/ToggleButton.js", "sap/m/VBox.js", "sap/ui/core/Fragment.js"],
      "includes" : []
    },
    {
      "name" : "sap/ui/documentation/sdk/view/Footer.fragment.xml",
      "size" : 1867,
      "required" : ["sap/m/FlexBox.js", "sap/m/Image.js", "sap/m/Link.js", "sap/ui/core/Fragment.js", "sap/ui/layout/BlockLayoutCell.js"],
      "includes" : []
    },
    {
      "name" : "sap/ui/documentation/sdk/view/Group.view.xml",
      "size" : 583,
      "required" : ["sap/m/Page.js", "sap/ui/core/mvc/XMLView.js", "sap/ui/documentation/sdk/controller/Group.controller.js"],
      "includes" : []
    },
    {
      "name" : "sap/ui/documentation/sdk/view/LegalDisclaimerPopover.fragment.xml",
      "size" : 1555,
      "required" : ["sap/m/Image.js", "sap/m/Label.js", "sap/m/Popover.js", "sap/m/Text.js", "sap/ui/core/Fragment.js"],
      "includes" : []
    },
    {
      "name" : "sap/ui/documentation/sdk/view/License.view.xml",
      "size" : 404,
      "required" : ["sap/m/Page.js", "sap/m/Text.js", "sap/ui/core/mvc/XMLView.js", "sap/ui/documentation/sdk/controller/License.controller.js"],
      "includes" : []
    },
    {
      "name" : "sap/ui/documentation/sdk/view/LiveEditor.view.xml",
      "size" : 1788,
      "required" : ["sap/m/Button.js", "sap/m/CheckBox.js", "sap/m/IconTabFilter.js", "sap/m/IconTabHeader.js", "sap/m/Title.js", "sap/m/Toolbar.js", "sap/m/VBox.js", "sap/ui/codeeditor/CodeEditor.js", "sap/ui/core/HTML.js", "sap/ui/core/mvc/XMLView.js", "sap/ui/documentation/sdk/controller/LiveEditor.controller.js"],
      "includes" : []
    },
    {
      "name" : "sap/ui/documentation/sdk/view/NotFound.view.xml",
      "size" : 373,
      "required" : ["sap/m/MessagePage.js", "sap/ui/core/mvc/XMLView.js", "sap/ui/documentation/sdk/controller/BaseController.controller.js"],
      "includes" : []
    },
    {
      "name" : "sap/ui/documentation/sdk/view/ReleaseDialog.fragment.xml",
      "size" : 504,
      "required" : ["sap/m/Button.js", "sap/m/Dialog.js", "sap/m/Text.js", "sap/ui/core/Fragment.js"],
      "includes" : []
    },
    {
      "name" : "sap/ui/documentation/sdk/view/ReleaseNotes.view.xml",
      "size" : 1822,
      "required" : ["sap/m/Link.js", "sap/m/Panel.js", "sap/m/Select.js", "sap/m/Text.js", "sap/ui/core/Item.js", "sap/ui/core/mvc/XMLView.js", "sap/ui/documentation/sdk/controller/ReleaseNotes.controller.js", "sap/ui/layout/VerticalLayout.js", "sap/uxap/ObjectPageHeader.js", "sap/uxap/ObjectPageLayout.js", "sap/uxap/ObjectPageSection.js", "sap/uxap/ObjectPageSubSection.js"],
      "includes" : []
    },
    {
      "name" : "sap/ui/documentation/sdk/view/Sample.view.xml",
      "size" : 2184,
      "required" : ["sap/m/Bar.js", "sap/m/Button.js", "sap/m/Page.js", "sap/m/PageAccessibleLandmarkInfo.js", "sap/m/Title.js", "sap/ui/core/mvc/XMLView.js", "sap/ui/documentation/sdk/controller/Sample.controller.js"],
      "includes" : []
    },
    {
      "name" : "sap/ui/documentation/sdk/view/SearchPage.view.xml",
      "size" : 4816,
      "required" : ["sap/m/FeedListItem.js", "sap/m/List.js", "sap/m/ObjectAttribute.js", "sap/m/OverflowToolbar.js", "sap/m/Title.js", "sap/m/VBox.js", "sap/ui/core/mvc/XMLView.js", "sap/ui/documentation/sdk/controller/SearchPage.controller.js", "sap/uxap/ObjectPageHeader.js", "sap/uxap/ObjectPageLayout.js", "sap/uxap/ObjectPageSection.js", "sap/uxap/ObjectPageSubSection.js"],
      "includes" : []
    },
    {
      "name" : "sap/ui/documentation/sdk/view/SubApiDetail.view.xml",
      "size" : 31974,
      "required" : ["sap/m/Label.js", "sap/m/Link.js", "sap/m/MessageStrip.js", "sap/m/ObjectStatus.js", "sap/m/Page.js", "sap/m/Panel.js", "sap/m/Text.js", "sap/m/Title.js", "sap/ui/core/ExtensionPoint.js", "sap/ui/core/mvc/XMLView.js", "sap/ui/documentation/sdk/controller/SubApiDetail.controller.js", "sap/ui/documentation/sdk/controls/BorrowedList.js", "sap/ui/documentation/sdk/controls/JSDocText.js", "sap/ui/documentation/sdk/controls/LightTable.js", "sap/ui/documentation/sdk/controls/ObjectPageSubSection.js", "sap/ui/documentation/sdk/controls/ParamText.js", "sap/ui/documentation/sdk/controls/Row.js", "sap/ui/layout/Grid.js", "sap/ui/layout/HorizontalLayout.js", "sap/ui/layout/VerticalLayout.js", "sap/uxap/ObjectPageHeader.js", "sap/uxap/ObjectPageHeaderActionButton.js", "sap/uxap/ObjectPageLayout.js", "sap/uxap/ObjectPageLazyLoader.js", "sap/uxap/ObjectPageSection.js"],
      "includes" : []
    },
    {
      "name" : "sap/ui/documentation/sdk/view/TermsOfUse.view.xml",
      "size" : 389,
      "required" : ["sap/m/Page.js", "sap/m/Text.js", "sap/ui/core/mvc/XMLView.js", "sap/ui/documentation/sdk/controller/TermsOfUse.controller.js"],
      "includes" : []
    },
    {
      "name" : "sap/ui/documentation/sdk/view/Tools.view.xml",
      "size" : 15572,
      "required" : ["sap/m/FlexBox.js", "sap/m/Image.js", "sap/m/Link.js", "sap/m/Page.js", "sap/m/Text.js", "sap/m/VBox.js", "sap/ui/core/Fragment.js", "sap/ui/core/mvc/XMLView.js", "sap/ui/documentation/sdk/controller/Tools.controller.js", "sap/ui/documentation/sdk/controls/TitleLink.js", "sap/ui/documentation/sdk/view/Footer.fragment.xml", "sap/ui/layout/BlockLayout.js", "sap/ui/layout/BlockLayoutCell.js", "sap/ui/layout/BlockLayoutRow.js"],
      "includes" : []
    },
    {
      "name" : "sap/ui/documentation/sdk/view/TopicDetail.view.xml",
      "size" : 1528,
      "required" : ["sap/f/DynamicPage.js", "sap/f/DynamicPageHeader.js", "sap/f/DynamicPageTitle.js", "sap/m/Button.js", "sap/m/Text.js", "sap/ui/core/HTML.js", "sap/ui/core/mvc/XMLView.js", "sap/ui/documentation/sdk/controller/TopicDetail.controller.js"],
      "includes" : []
    },
    {
      "name" : "sap/ui/documentation/sdk/view/TopicDetailInitial.view.xml",
      "size" : 6998,
      "required" : ["sap/m/Button.js", "sap/m/Image.js", "sap/m/MessageStrip.js", "sap/m/Page.js", "sap/m/Text.js", "sap/ui/core/Fragment.js", "sap/ui/core/mvc/XMLView.js", "sap/ui/documentation/sdk/controller/TopicDetailInitial.controller.js", "sap/ui/documentation/sdk/controls/TitleLink.js", "sap/ui/documentation/sdk/view/Footer.fragment.xml", "sap/ui/layout/BlockLayout.js", "sap/ui/layout/BlockLayoutCell.js", "sap/ui/layout/BlockLayoutRow.js", "sap/ui/layout/VerticalLayout.js"],
      "includes" : []
    },
    {
      "name" : "sap/ui/documentation/sdk/view/TopicMaster.view.xml",
      "size" : 1254,
      "required" : ["sap/m/Button.js", "sap/m/Page.js", "sap/m/SearchField.js", "sap/m/Toolbar.js", "sap/m/Tree.js", "sap/ui/core/mvc/XMLView.js", "sap/ui/documentation/sdk/controller/TopicMaster.controller.js", "sap/ui/documentation/sdk/controls/DemokitTreeItem.js"],
      "includes" : []
    },
    {
      "name" : "sap/ui/documentation/sdk/view/VersionInfo.view.xml",
      "size" : 372,
      "required" : ["sap/ui/core/HTML.js", "sap/ui/core/mvc/XMLView.js"],
      "includes" : []
    },
    {
      "name" : "sap/ui/documentation/sdk/view/Welcome.view.xml",
      "size" : 20604,
      "required" : ["sap/m/Button.js", "sap/m/FlexItemData.js", "sap/m/HBox.js", "sap/m/Image.js", "sap/m/Page.js", "sap/m/Text.js", "sap/ui/core/Fragment.js", "sap/ui/core/Icon.js", "sap/ui/core/mvc/XMLView.js", "sap/ui/documentation/sdk/controller/Welcome.controller.js", "sap/ui/documentation/sdk/controls/TitleLink.js", "sap/ui/documentation/sdk/view/Footer.fragment.xml", "sap/ui/documentation/sdk/view/LiveEditor.view.xml", "sap/ui/layout/BlockLayout.js", "sap/ui/layout/BlockLayoutCell.js", "sap/ui/layout/BlockLayoutCellData.js", "sap/ui/layout/BlockLayoutRow.js", "sap/ui/layout/Grid.js", "sap/ui/layout/GridData.js", "sap/ui/layout/HorizontalLayout.js", "sap/ui/layout/VerticalLayout.js"],
      "includes" : []
    },
    {
      "name" : "sap/ui/documentation/sdk/view/appSettingsDialog.fragment.xml",
      "size" : 1594,
      "required" : ["sap/m/Button.js", "sap/m/Dialog.js", "sap/m/HBox.js", "sap/m/Label.js", "sap/m/Link.js", "sap/m/Select.js", "sap/m/Switch.js", "sap/m/VBox.js", "sap/ui/core/Fragment.js", "sap/ui/core/Item.js"],
      "includes" : []
    },
    {
      "name" : "sap/ui/documentation/sdk/view/viewSettingsDialog.fragment.xml",
      "size" : 1809,
      "required" : ["sap/m/ViewSettingsDialog.js", "sap/m/ViewSettingsFilterItem.js", "sap/m/ViewSettingsItem.js", "sap/ui/core/Fragment.js"],
      "includes" : []
    }
  ]
}
